<?xml version="1.0" encoding="UTF-8" standalone="no"?>
<!DOCTYPE svg PUBLIC "-//W3C//DTD SVG 1.1//EN" "http://www.w3.org/Graphics/SVG/1.1/DTD/svg11.dtd" >
<svg xmlns="http://www.w3.org/2000/svg"
><metadata
></metadata
><defs
><font horiz-adv-x="1075"
><font-face font-family="Neo Sans Intel" units-per-em="2048" ascent="2124" descent="-444"
></font-face
><missing-glyph horiz-adv-x="2048" d="M213 0V1536H1749V0H213ZM341 128H1621V1408H341V128Z"
></missing-glyph
><glyph unicode=" " horiz-adv-x="506" d=""
></glyph
><glyph unicode="!" horiz-adv-x="397" d="M303 1501L287 436q0 -16 -11.5 -27.5T248 397H156q-16 0 -28.5 11.5T115 436L100 1501q0 17 13 28t28 11H262q17 0 29 -11t12 -28ZM299 39Q299 22 288 11T260 0H145Q129 0 117.5 11.5T106 39V231q0 16 11 27.5T145 270H260q16 0 27.5 -10.5T299 231V39Z"
></glyph
><glyph unicode="&quot;" horiz-adv-x="725" d="M690 1518q0 -11 -2 -17L569 1114q-11 -39 -39 -39H418q-19 0 -19 21q0 12 2 18l95 387q8 39 41 39H668q22 0 22 -22ZM326 1518q0 -11 -2 -17L205 1114q-11 -39 -39 -39H53q-18 0 -18 21q0 12 2 18l94 387q8 39 41 39H303q23 0 23 -22Z"
></glyph
><glyph unicode="#" horiz-adv-x="1313" d="M1231 1057v-4l-4 -62q-1 -16 -12.5 -27.5T1186 952H995L958 555h193q15 0 24 -11t9 -28v-4l-4 -59q-1 -16 -12.5 -27.5T1139 414H946L913 39Q909 0 877 0H770Q756 0 746.5 10.5T737 35v4l33 375H469L436 39Q434 23 423.5 11.5T399 0H291Q277 0 267.5 11.5T258 35v4l33 375H109q-15 0 -24 11.5T76 453v4l4 59q3 39 41 39H303l37 397H156q-15 0 -24 11.5T123 991v4l4 62q2 17 13 28t28 11H350l35 387q1 15 12.5 27t26.5 12H532q14 0 22.5 -10.5T563 1487v-4L528 1096H829l35 387q2 17 13 28t26 11h107q15 0 22.5 -9.5T1040 1487v-4l-34 -387h192q15 0 24 -11t9 -28ZM819 952H518L481 555H782l37 397Z"
></glyph
><glyph unicode="$" horiz-adv-x="1178" d="M1049 395q0 -152 -87 -263.5T676 -6V-199q0 -15 -13 -28t-28 -13H539q-17 0 -29 13t-12 28V-12Q407 -4 318 18.5T170 70Q144 83 137.5 92T131 125v84q0 40 41 24q92 -32 198.5 -54.5T565 156q104 0 169 29t92.5 82.5T854 395q0 77 -50 132.5T610 670L412 791Q264 881 196.5 968.5T129 1174q0 162 97.5 251.5T498 1532v174q0 17 11.5 29t29.5 12h96q17 0 29 -12t12 -29V1530q142 -14 276 -68q16 -6 25.5 -14t9.5 -23V1321q0 -37 -39 -25q-71 23 -126.5 38t-118 24.5T582 1368q-89 0 -147.5 -17.5t-88 -60.5T317 1174q0 -70 49.5 -121.5T541 926L729 813Q848 742 918 678T1018.5 546T1049 395Z"
></glyph
><glyph unicode="%" horiz-adv-x="1593" d="M627 1014Q627 849 554 764.5T350 680q-132 0 -205 84.5T72 1014v190q0 166 72.5 249T350 1536q87 0 149.5 -36.5t95 -111.5T627 1204V1014ZM1307 1477L449 25Q433 0 408 0H313Q283 0 283 18q0 7 10 27l858 1452q16 25 41 25h94q31 0 31 -19q0 -6 -10 -26ZM494 1014v190q0 209 -144 209q-145 0 -145 -209V1014Q205 805 350 805q144 0 144 209ZM1526 319q0 -165 -73 -249T1249 -14q-132 0 -205 84T971 319V510q0 167 73 249.5T1249 842q131 0 204 -82.5T1526 510V319ZM1393 319V510q0 209 -144 209q-145 0 -145 -209V319q0 -208 145 -208q144 0 144 208Z"
></glyph
><glyph unicode="&amp;" horiz-adv-x="1354" d="M1292 23q0 -10 -6.5 -16.5T1270 0H1128q-18 0 -32 14L993 125Q831 -14 590 -14Q379 -14 233.5 77T88 360v17q0 83 30.5 150.5T216 656T383 780l-14 17Q233 954 194.5 1034.5T156 1194v16q0 159 114 242.5T586 1536q116 0 207.5 -36.5T939 1389t54 -179v-16q0 -72 -25.5 -130.5T875 939.5T680 788L623 750L993 350q80 141 80 361v28q0 33 33 33h88q35 0 35 -33V711q0 -133 -33 -255T1100 240L1282 45q10 -10 10 -22ZM823 1194v16q0 98 -62 143.5T586 1399q-262 0 -262 -189v-16q0 -43 11 -79t47 -87.5T498 887l20 -23l70 43q101 62 150.5 105t67 83t17.5 99ZM895 231L487 668Q365 591 320.5 531T276 377V360q0 -117 89.5 -175T590 127q183 0 305 104Z"
></glyph
><glyph unicode="&#39;" horiz-adv-x="375" d="M340 1518q0 -11 -2 -17L219 1114q-11 -39 -39 -39H68q-19 0 -19 21q0 12 2 18l94 387q9 39 41 39H317q23 0 23 -22Z"
></glyph
><glyph unicode="(" horiz-adv-x="590" d="M549 -412q0 -16 -21 -16H432q-16 0 -26.5 4.5T385 -406Q250 -241 174 14T98 543v26q0 274 76 529t211 420q18 22 47 22h96q21 0 21 -16q0 -12 -6 -21Q476 1403 426.5 1294.5T344.5 1071t-49 -243T279 569V543Q279 -3 543 -391q6 -9 6 -21Z"
></glyph
><glyph unicode=")" horiz-adv-x="590" d="M516 543Q516 269 439.5 12.5T229 -406q-11 -14 -21 -18t-26 -4H86q-20 0 -20 16q0 12 6 21Q336 -3 336 543v26q0 142 -17.5 269T268 1080t-82.5 222.5T72 1503q-6 9 -6 21q0 16 20 16h96q29 0 47 -22q68 -81 121.5 -188T440 1102T496 845T516 569V543Z"
></glyph
><glyph unicode="*" horiz-adv-x="915" d="M840 1225q0 -20 -29 -31L555 1114L713 897q10 -13 10 -27q0 -13 -12 -22L662 811q-10 -6 -17 -6q-16 0 -31 20L459 1042L303 825Q290 805 272 805q-7 0 -16 6l-51 37q-12 9 -12 22q0 14 10 27l159 217l-253 80q-31 11 -31 31q1 3 1.5 5t0.5 5l18 59q6 21 27 21q6 0 18 -4l254 -84v268q0 39 31 39h61q31 0 31 -39l-2 -268l256 84q12 4 19 4q20 0 26 -21l19 -59q2 -4 2 -10Z"
></glyph
><glyph unicode="+" horiz-adv-x="1178" d="M1055 752q0 -33 -41 -33H670V377q0 -18 -9 -29.5T637 336H539q-33 0 -33 41V719H164q-41 0 -41 33v98q0 15 11.5 24t29.5 9H506v344q0 41 33 41h98q15 0 24 -12.5t9 -28.5V883h344q16 0 28.5 -9T1055 850V752Z"
></glyph
><glyph unicode="," horiz-adv-x="416" d="M354 242q0 -5 -4 -17L197 -162q-8 -20 -16 -29.5T158 -201H57q-24 0 -24 25q0 10 2 14L152 225q12 39 41 39H328q26 0 26 -22Z"
></glyph
><glyph unicode="-" horiz-adv-x="645" d="M565 551q0 -35 -39 -35H119q-39 0 -39 35v96q0 17 11 27t28 10H526q39 0 39 -37V551Z"
></glyph
><glyph unicode="." horiz-adv-x="389" d="M297 43Q297 25 285.5 13.5T258 2H143Q128 2 116 14T104 43V233q0 16 11 27.5T143 272H258q16 0 27.5 -10.5T297 233V43Z"
></glyph
><glyph unicode="/" horiz-adv-x="713" d="M686 1497q0 -10 -2 -16L221 41Q209 0 184 0H68Q39 0 39 25q0 12 4 26L506 1481q12 41 35 41H657q29 0 29 -25Z"
></glyph
><glyph unicode="0" horiz-adv-x="1198" d="M1102 623Q1102 293 971.5 139.5T600 -14Q359 -14 227.5 140T96 623V899q0 329 131.5 483T600 1536q241 0 371.5 -153.5T1102 899V623ZM915 623V899q0 252 -82 365.5T600 1378q-75 0 -132 -26.5T370 1268T307 1117.5T285 899V623q0 -167 37.5 -274.5T431 192T600 143q151 0 233 114.5T915 623Z"
></glyph
><glyph unicode="1" horiz-adv-x="1198" d="M731 41Q731 23 721 11.5T694 0H582Q565 0 555 12T545 41V1329L281 1214q-16 -6 -27 -6q-18 0 -18 23v104q0 16 20 27l309 147q25 13 43 13h84q16 0 27.5 -10.5T731 1483V41Z"
></glyph
><glyph unicode="2" horiz-adv-x="1198" d="M1055 1169q0 -82 -27 -146.5t-84.5 -123T788 774L592 641Q481 566 417.5 500t-88 -135T305 205V162H995q41 0 41 -35V37q0 -18 -12 -27.5T995 0H182Q166 0 153.5 11.5T141 39V205q0 107 32.5 202.5t102 179T455 743L662 883q128 86 169 140.5T872 1169q0 74 -28.5 120.5T758 1358t-144 22q-69 0 -139.5 -12.5t-140 -32T219 1303q-19 -6 -30 2t-11 26v70q0 19 6.5 27.5T209 1444q53 23 114 43t142.5 34.5T621 1536q104 0 187 -24t136 -68t82 -113t29 -162Z"
></glyph
><glyph unicode="3" horiz-adv-x="1198" d="M555 -14q-98 0 -201 24.5T182 63q-18 9 -24 17t-6 26v70q0 41 41 29Q314 173 388.5 157T549 141q165 0 236 67t71 216v43q0 59 -22.5 116.5t-77 95.5T616 717H244q-39 0 -39 37v71q0 17 11 28t28 11H616q92 0 145.5 36t74 91.5T856 1108v29q0 87 -29 139.5t-96.5 78T549 1380q-86 0 -163 -16T193 1317q-41 -12 -41 29v69q0 19 6.5 27.5T182 1458q68 29 170 53.5T555 1536q243 0 367.5 -91T1047 1137v-29q0 -53 -12.5 -99.5T997 920.5T935 845T852 788Q952 740 999.5 653.5T1047 467V424Q1047 201 917.5 93.5T555 -14Z"
></glyph
><glyph unicode="4" horiz-adv-x="1198" d="M1139 442q0 -17 -11.5 -26.5T1100 406H922V41q0 -17 -9.5 -29T887 0H768Q733 0 733 41V406H141q-45 0 -64.5 18T57 485v78q0 43 25 76l606 850q21 33 60 33H868q54 0 54 -45V561h178q17 0 28 -10t11 -27V442ZM735 561v701q0 12 -8 12h-2q-8 0 -16 -12L236 590q-7 -8 -7 -17q0 -12 17 -12H735Z"
></glyph
><glyph unicode="5" horiz-adv-x="1198" d="M541 -14q-99 0 -201.5 24.5T168 63Q149 73 143 80.5T137 106v70q0 42 41 29Q391 141 537 141q172 0 252.5 81T870 463v31q0 151 -98.5 212.5T442 768H197q-14 0 -23.5 11.5T164 803v2l57 682q2 16 14 25.5t27 9.5H967q17 0 29 -9.5t12 -25.5v-90q0 -33 -41 -33H379L346 922h96q200 0 335.5 -40T986 747t73 -253V463Q1059 235 923.5 110.5T541 -14Z"
></glyph
><glyph unicode="6" horiz-adv-x="1198" d="M911 504v12q0 104 -43.5 167.5T753 773T594 799q-69 0 -160 -11.5T285 762V567q0 -164 35.5 -258T424 176T596 137q73 0 131.5 20t99 61.5t62.5 114T911 504ZM635 1536q189 0 369 -76q18 -7 24 -14.5t6 -28.5v-74q0 -40 -41 -28q-129 34 -196 49.5T635 1380q-149 0 -226 -55T308.5 1174T285 926V903q181 41 309 41q142 0 254.5 -40t180 -135T1096 516V504q0 -164 -55.5 -280T873.5 47T596 -14Q480 -14 388.5 21.5T233 127.5T134.5 309T100 567V926q0 217 60 351t179 196.5T635 1536Z"
></glyph
><glyph unicode="7" horiz-adv-x="1198" d="M1069 1393q0 -51 -27 -107L453 31Q437 0 408 0H285Q254 0 254 31q0 10 6 22L879 1339q2 2 2 9q0 14 -15 14H168q-41 0 -41 35v86q0 15 12 27t29 12H915q81 0 117.5 -36t36.5 -93Z"
></glyph
><glyph unicode="8" horiz-adv-x="1198" d="M1106 424Q1106 209 965.5 97.5T608 -14H588Q371 -14 230.5 97.5T90 424v39q0 96 53 188T289 795Q195 844 144.5 928T94 1114v19q0 138 63.5 227.5T332 1493t256 43h20q145 0 256 -43t174.5 -132.5T1102 1133v-19q0 -69 -22.5 -130t-65 -108.5T907 795q92 -51 145.5 -142T1106 463V424ZM922 1114v19q0 121 -81 186t-233 65H588q-152 0 -233 -65T274 1133v-19q0 -105 64 -175.5T535 868H662q131 0 195.5 70.5T922 1114ZM920 424v39q0 62 -26.5 121.5t-85 98T662 721H535q-87 0 -146 -38T303 585T276 463V424q0 -134 81.5 -208.5T588 141h20q151 0 231.5 74.5T920 424Z"
></glyph
><glyph unicode="9" horiz-adv-x="1198" d="M285 1018v-12q0 -154 89 -218.5T602 723q62 0 154 10.5T911 760V954q0 241 -76.5 335.5T600 1384q-99 0 -169 -35T323 1232.5T285 1018ZM561 -14Q464 -14 366 8T193 61Q174 71 168 78.5T162 104v74q0 41 41 29q26 -7 68 -18.5T363.5 165t102 -18T561 141q149 0 226 55T887.5 347.5T911 596v22Q818 598 748 588T602 578q-107 0 -194 21T249.5 670T139 804t-39 202v12q0 124 31.5 219.5t93.5 162T381 1501t219 35q117 0 208.5 -35T964 1395t98 -182t34 -259V596q0 -165 -34 -280T961 128T794 20.5T561 -14Z"
></glyph
><glyph unicode=":" horiz-adv-x="399" d="M303 895q0 -17 -11.5 -28T262 856H150q-17 0 -29 11t-12 28v190q0 16 11.5 28.5T150 1126H262q18 0 29.5 -11.5T303 1085V895ZM303 39Q303 22 291.5 11T262 0H150Q133 0 121 11T109 39V231q0 15 11.5 27T150 270H262q17 0 29 -11t12 -28V39Z"
></glyph
><glyph unicode=";" horiz-adv-x="426" d="M328 895q0 -17 -11 -28T289 856H172q-16 0 -27.5 11.5T133 895v190q0 17 11 29t28 12H289q17 0 28 -12t11 -29V895ZM336 240q0 -5 -4 -17L178 -164q-9 -23 -16 -32t-23 -9H41q-25 0 -25 27q0 10 2 14L135 223q12 39 41 39H309q27 0 27 -22Z"
></glyph
><glyph unicode="&lt;" horiz-adv-x="1145" d="M942 307q0 -20 -24 -20H782q-32 0 -63 26L225 731q-37 32 -37 70q0 38 37 69l494 418q31 27 63 27H918q24 0 24 -21q0 -17 -20 -34L385 801L922 342q20 -17 20 -35Z"
></glyph
><glyph unicode="=" horiz-adv-x="1165" d="M1018 979q0 -33 -41 -33H188q-41 0 -41 33v98q0 33 41 33H977q41 0 41 -33V979ZM1018 526q0 -32 -41 -32H188q-41 0 -41 32v99q0 32 41 32H977q41 0 41 -32V526Z"
></glyph
><glyph unicode="&gt;" horiz-adv-x="1145" d="M956 801q0 -38 -36 -70L426 313Q394 287 362 287H227q-24 0 -24 20q0 18 20 35L760 801L223 1260q-20 17 -20 34q0 21 24 21H362q32 0 64 -27L920 870q36 -30 36 -69Z"
></glyph
><glyph unicode="?" horiz-adv-x="893" d="M418 39Q418 22 407 11T379 0H264Q249 0 236 11T223 39V229q0 16 12.5 28.5T264 270H379q17 0 28 -12t11 -29V39ZM385 1374q-90 0 -171.5 -17.5T18 1303q-38 -13 -38 24v98q0 15 9 22.5T14 1462q56 25 159.5 49.5T385 1536q192 0 301 -71.5T795 1227v-25q0 -50 -15 -97T725 999T608 852L516 748Q459 682 444.5 662.5T419 611T408 537V436q0 -16 -12.5 -27.5T367 397H276q-15 0 -26.5 11.5T238 436V537q0 67 11.5 113.5t41.5 93T373 846l94 104q76 85 101.5 136.5T594 1202v25q0 80 -50.5 113.5T385 1374Z"
></glyph
><glyph unicode="@" horiz-adv-x="1540" d="M696 102q-106 0 -172.5 42T428 252T399 391q0 29 2 41l23 240q7 79 34.5 138.5T535 913t114 63.5T797 997q116 0 262 -30q22 -5 32.5 -14T1102 924L1053 399q-1 -21 -2 -36.5T1049 332q0 -84 75 -84q85 0 132.5 76.5t65 180.5T1339 705q0 155 -56 271.5T1113 1159t-277 66q-264 0 -421 -140.5T233 705L203 393q-4 -44 -4 -65q0 -91 32 -171T327.5 17t162 -93T715 -109q109 0 295 15h2q12 0 15 -5.5t3 -9.5v-65q0 -26 -33 -29Q856 -219 713 -219q-144 0 -264 39T243 -67T112.5 108.5T68 330q0 43 2 63l30 320q18 185 111.5 328T467 1263.5T842 1343q204 0 347.5 -81.5t214.5 -225T1475 705q0 -181 -42.5 -314T1307 185.5T1108 113q-129 0 -186 77Q805 102 696 102ZM879 350q0 39 2 60l39 428q-86 12 -140 12q-89 0 -133 -44T594 668L571 434q-2 -14 -2 -39Q569 248 713 248q69 0 168 57q-2 14 -2 45Z"
></glyph
><glyph unicode="A" horiz-adv-x="1276" d="M1227 33Q1227 0 1192 0H1071q-28 0 -35 31L903 502H373L242 31Q239 18 227 9T205 0H84Q70 0 59.5 9.5T49 33q0 10 2 14L430 1380q25 87 83 121.5T639 1536q44 0 84 -13.5t73 -48T846 1382L1225 47q2 -4 2 -14ZM864 664L678 1337q-10 37 -39 37q-31 0 -41 -37L412 664H864Z"
></glyph
><glyph unicode="B" horiz-adv-x="1210" d="M1128 420Q1128 -14 530 -14Q313 -14 197 4Q161 9 145 25.5T129 80V1444q0 70 66 76q134 16 325 16q178 0 310.5 -36t211 -123.5T1120 1141v-33q0 -113 -58 -197.5T901 786q105 -35 166 -123.5T1128 455V420ZM934 1108v33q0 137 -103 187t-311 50q-47 0 -61 -0.5t-59 -2T317 1372V864H633q301 0 301 244ZM942 420v35q0 116 -70.5 188T633 715H317V152q36 -1 106.5 -5T530 143q136 0 225 24t138 84.5T942 420Z"
></glyph
><glyph unicode="C" d="M98 618v3V903q0 343 154.5 488T645 1536q63 0 129.5 -14t123 -34T987 1450q21 -12 21 -33V1317q0 -13 -10 -18.5T973 1298q-54 21 -155 45.5T645 1368Q285 1368 285 903V621q0 -170 45 -273.5T455 199T645 154q125 0 328 69q17 6 26 1t9 -19V104q0 -20 -21 -32Q954 54 897.5 34T774.5 0T645 -14Q407 -14 252.5 131T98 618Z"
></glyph
><glyph unicode="D" horiz-adv-x="1260" d="M1165 623q0 -321 -163 -479T545 -14q-40 0 -107 2T316.5 -7T237 -1.5T172 6q-43 6 -43 51V1464q0 44 43 52q43 6 86 9.5t125 7t162 3.5q295 0 457.5 -157.5T1165 899V623ZM979 623V899q0 176 -54.5 282.5T773 1332t-228 44q-126 0 -228 -6V150q66 -5 228 -5q204 0 319 109T979 623Z"
></glyph
><glyph unicode="E" d="M985 25Q985 -1 965 -4Q868 -14 565 -14Q420 -14 323.5 25T178 149T129 367v788q0 199 108 290t328 91q102 0 221 -3t179 -9q20 -3 20 -29V1393q0 -25 -22 -25H567q-108 0 -162 -20.5t-72 -65T315 1155V870H944q19 0 30 -11t11 -30V752q0 -18 -12 -29.5T944 711H315V367q0 -83 18 -127.5t72 -65T567 154H963q22 0 22 -25V25Z"
></glyph
><glyph unicode="F" d="M985 752q0 -18 -12 -29.5T944 711H315V41Q315 23 303 11.5T274 0H170Q153 0 141 12T129 41V1155q0 199 108 290t328 91q102 0 221 -3t179 -9q20 -3 20 -29V1393q0 -25 -22 -25H567q-108 0 -162 -20.5t-72 -65T315 1155V870H944q19 0 30 -11t11 -30V752Z"
></glyph
><glyph unicode="G" horiz-adv-x="1200" d="M651 1368q-165 0 -266.5 -108T283 897V623q0 -124 25.5 -212.5T382.5 265t116 -84T653 154q110 0 232 10V750q0 16 10 28.5T922 791h110q15 0 27 -12t12 -29V61q0 -18 -10 -30T1034 16Q982 8 873 -3T651 -14Q538 -14 438 21T260.5 132t-121 198.5T96 623V897q0 180 47 304.5T269.5 1399t177 105T651 1536q109 0 224.5 -29T1040 1450q21 -11 21 -33V1317q0 -31 -35 -19q-45 15 -104.5 30.5T787 1356t-136 12Z"
></glyph
><glyph unicode="H" horiz-adv-x="1331" d="M1202 41q0 -18 -12 -29.5T1161 0H1057q-17 0 -29 12t-12 29V721H315V41Q315 23 303 11.5T274 0H170Q153 0 141 12T129 41V1481q0 15 12 28t29 13H274q17 0 29 -12t12 -29V887h701v594q0 15 12 28t29 13h104q17 0 29 -12t12 -29V41Z"
></glyph
><glyph unicode="I" horiz-adv-x="477" d="M332 41Q332 25 321.5 12.5T295 0H182Q168 0 156.5 11.5T145 41V1483q0 15 11 27t26 12H295q15 0 26 -11t11 -28V41Z"
></glyph
><glyph unicode="J" horiz-adv-x="510" d="M381 -76q0 -149 -75 -221T63 -369q-26 0 -62.5 6.5T-45 -352q-12 6 -12 22v76q0 35 41 35H63q79 0 105.5 32T195 -76V1483q0 15 12 27t26 12H342q15 0 27 -12t12 -27V-76Z"
></glyph
><glyph unicode="K" horiz-adv-x="1196" d="M1124 20Q1124 0 1098 0H938Q910 0 893 20L315 723V41Q315 23 305 11.5T279 0H166Q150 0 139.5 11.5T129 41V1483q0 16 11.5 27.5T168 1522H276q16 0 27.5 -10.5T315 1483V821l590 682q19 19 41 19h148q28 0 28 -23q0 -12 -8 -20L498 782L1114 45q10 -10 10 -25Z"
></glyph
><glyph unicode="L" horiz-adv-x="1016" d="M985 33Q985 7 965 4Q844 -14 565 -14Q438 -14 343 13T188.5 124.5T129 367V1481q0 15 12 28t29 13H274q17 0 29 -12t12 -29V367q0 -83 18 -127.5t72 -65T567 154H963q22 0 22 -25V33Z"
></glyph
><glyph unicode="M" horiz-adv-x="1497" d="M1370 41q0 -18 -12 -29.5T1329 0H1229q-17 0 -29 12t-12 29V1255q0 7 -2 7q-2 0 -4 -5L926 729Q894 660 852 630T750 600q-59 0 -100.5 28.5T573 727L317 1257q-2 5 -4 5q-2 0 -2 -7V41Q311 23 299 11.5T270 0H170Q153 0 141 12T129 41V1462q0 25 17.5 42.5T188 1522H322q49 0 65 -35L725 784q10 -22 25 -22q14 0 24 22l338 703q9 20 23 27.5t43 7.5h133q16 0 30 -8.5t21.5 -22T1370 1462V41Z"
></glyph
><glyph unicode="N" horiz-adv-x="1331" d="M1202 59q0 -25 -18 -42T1143 0H1016Q967 0 950 33L317 1235q-3 6 -6 6q-2 0 -2 -6V39Q309 23 298.5 11.5T272 0H166Q129 0 129 25V1464q0 24 17 41t42 17H301q41 0 56 -8.5T385 1481L1014 285l4 -6q2 0 2 6V1483q0 16 10.5 27.5T1057 1522h108q17 0 27 -11t10 -28V59Z"
></glyph
><glyph unicode="O" horiz-adv-x="1305" d="M1206 629q0 -167 -40 -289.5t-114 -201T876.5 23T653 -14Q532 -14 430.5 23T254 138.5T138.5 341T98 629V893q0 165 41 288.5T255 1384t175 115.5T653 1536q123 0 223.5 -37T1051 1383.5T1165.5 1183T1206 893V629ZM1018 629V893q0 125 -25.5 218T921 1259t-113 82t-155 27Q287 1368 287 893V629q0 -166 44 -272.5T456 202T653 154q365 0 365 475Z"
></glyph
><glyph unicode="P" horiz-adv-x="1165" d="M1092 1065Q1092 606 518 606q-70 0 -205 10V41Q313 23 303 11.5T276 0H166Q150 0 139.5 11.5T129 41V1468q0 46 49 52q141 16 340 16q173 0 301.5 -44T1020 1348.5T1092 1092v-27ZM905 1065v27q0 153 -92.5 219.5T518 1378q-107 0 -205 -8V770q11 0 36.5 -1.5t55 -2.5t62 -2.5T518 762q139 0 224.5 31t124 98T905 1065Z"
></glyph
><glyph unicode="Q" horiz-adv-x="1323" d="M1206 629Q1206 231 979 76q13 -99 151 -99h121q43 0 43 -34v-60q0 -31 -38.5 -44T1130 -174q-125 0 -204 41T811 2Q733 -14 653 -14Q532 -14 430.5 23T254 138.5T138.5 341T98 629V893q0 165 41 288.5T255 1384t175 115.5T653 1536q123 0 223.5 -37T1051 1383.5T1165.5 1183T1206 893V629ZM1018 629V893q0 125 -25.5 218T921 1259t-113 82t-155 27Q287 1368 287 893V629q0 -166 44 -272.5T456 202T653 154q365 0 365 475Z"
></glyph
><glyph unicode="R" horiz-adv-x="1235" d="M1169 27Q1169 0 1143 0H1012Q990 0 980.5 4.5T958 27L592 637H573H539q-62 0 -226 6V41Q313 23 303 11.5T276 0H166Q150 0 139.5 11.5T129 41V1475q0 40 49 45q37 4 109.5 8.5t142 6T539 1536q170 0 298 -42.5T1038.5 1352T1112 1096v-15q0 -164 -87.5 -269T791 668L1163 45q6 -9 6 -18ZM928 1081v15q0 99 -43 159.5T757 1342t-218 26q-177 0 -226 -6V801q180 -4 226 -4q132 0 216.5 25.5t128.5 88T928 1081Z"
></glyph
><glyph unicode="S" horiz-adv-x="1087" d="M1001 395Q1001 222 888.5 104T512 -14q-98 0 -208 25T123 70Q97 83 90.5 92T84 125v84q0 40 41 24q90 -31 197 -54T518 156q104 0 169 29t92.5 82.5T807 395q0 77 -50 132.5T563 670L365 791Q217 881 149.5 968.5T82 1174q0 119 55 201t157.5 121.5T535 1536q109 0 213 -24.5T905 1462q16 -6 25.5 -14t9.5 -23V1321q0 -37 -39 -25q-71 23 -126.5 38t-118 24.5T535 1368q-138 0 -201.5 -43.5T270 1174q0 -70 49.5 -121.5T494 926L682 813Q858 710 929.5 614.5T1001 395Z"
></glyph
><glyph unicode="T" horiz-adv-x="1180" d="M1122 1395q0 -33 -39 -33H684V41Q684 23 674 11.5T647 0H535Q519 0 508.5 11.5T498 41V1362H98q-41 0 -41 33v90q0 14 12.5 25.5T98 1522h985q16 0 27.5 -10.5T1122 1485v-90Z"
></glyph
><glyph unicode="U" horiz-adv-x="1294" d="M1171 553q0 -145 -34.5 -252t-103 -177.5T869 19.5T647 -14Q521 -14 425.5 19.5T262 123.5T158.5 301T123 553v930q0 16 11.5 27.5T162 1522H272q16 0 27.5 -10.5T311 1483V553q0 -206 76 -307T647 145q124 0 198.5 46t106 135.5T983 553v930q0 16 11.5 27.5T1022 1522h111q16 0 27 -11t11 -28V553Z"
></glyph
><glyph unicode="V" horiz-adv-x="1292" d="M1235 1487q0 -8 -2 -12L856 141Q832 54 774.5 20T647 -14Q482 -14 438 141L59 1475q-2 4 -2 12q0 16 11.5 25.5T94 1522H213q11 0 22.5 -9T250 1491L606 186q12 -43 41 -43q27 0 39 43l358 1305q10 31 35 31h121q35 0 35 -35Z"
></glyph
><glyph unicode="W" horiz-adv-x="1663" d="M1606 1487v-6L1378 96Q1368 36 1336.5 14T1251 -8h-88q-89 0 -116 102L846 852q-5 18 -15 18q-9 0 -14 -18L614 94Q602 48 571.5 20T498 -8H412q-54 0 -85.5 22T285 96L57 1481v6q0 15 10 25t25 10H211q29 0 35 -35L444 182q2 -11 3 -17.5t2.5 -9.5t5.5 -3q7 0 14 30L651 870q23 82 63.5 120T831 1028q76 0 118.5 -39T1012 870L1194 182q7 -30 14 -30q5 0 7 9.5t4 20.5l198 1305q6 35 35 35h119q10 0 18 -4.5t12.5 -12.5t4.5 -18Z"
></glyph
><glyph unicode="X" horiz-adv-x="1288" d="M1219 29q0 -12 -9.5 -20.5T1186 0H1057q-16 0 -24 7t-19 24L639 627L272 31Q253 0 229 0H109Q76 0 76 31q0 11 6 20L537 774L86 1473q-6 9 -6 20q0 29 31 29H244q24 0 37 -21L649 918l357 583q13 21 38 21h121q16 0 24.5 -8.5T1198 1491q0 -9 -6 -18L752 770L1212 51q7 -8 7 -22Z"
></glyph
><glyph unicode="Y" horiz-adv-x="1167" d="M1110 1493q0 -9 -6 -23L786 758Q739 650 676 623V41Q676 24 665 12T639 0H526Q511 0 500 12T489 41V623Q429 646 379 758L63 1470q-6 14 -6 23q0 12 9.5 20.5T92 1522H217q10 0 21.5 -9.5T254 1493L537 829q23 -53 47 -53q23 0 47 53l284 664q15 29 35 29h125q16 0 25.5 -8t9.5 -21Z"
></glyph
><glyph unicode="Z" horiz-adv-x="1180" d="M1092 37q0 -16 -12.5 -26.5T1051 0H262Q164 0 128 29T92 139q0 73 31 119L856 1325q6 9 6 16q0 15 -20 15H162q-17 0 -29 9.5T121 1391v96q0 15 12 25t29 10H891q92 0 133 -27.5T1065 1386q0 -29 -8.5 -64T1032 1266L301 199q-6 -9 -6 -19q0 -12 20 -12h736q17 0 29 -9.5T1092 133V37Z"
></glyph
><glyph unicode="[" horiz-adv-x="629" d="M588 -356q0 -17 -13 -29t-28 -12H166q-15 0 -25 12t-10 27V1483q0 15 10 27t25 12H547q15 0 28 -13t13 -28v-68q0 -15 -13 -28t-28 -13H313V-248H547q17 0 29 -12t12 -29v-67Z"
></glyph
><glyph unicode="\" horiz-adv-x="711" d="M674 29Q674 16 666 8T645 0H541Q516 0 504 41L41 1481q-2 4 -2 12q0 10 8 19.5t21 9.5H172q23 0 35 -41L672 41q2 -4 2 -12Z"
></glyph
><glyph unicode="]" horiz-adv-x="629" d="M498 -358q0 -15 -10 -27t-25 -12H82q-17 0 -29 12t-12 29v67q0 17 11.5 29T82 -248H315V1372H82q-17 0 -29 13t-12 28v68q0 15 12 28t29 13H463q15 0 25 -12t10 -27V-358Z"
></glyph
><glyph unicode="^" horiz-adv-x="1157" d="M993 1171q0 -18 -22 -18H848q-20 0 -28 6t-29 31L580 1436L369 1190q-19 -23 -28.5 -30T311 1153H188q-22 0 -22 18q0 12 8 23l236 305q17 23 28.5 30t32.5 7H688q21 0 33.5 -7.5T750 1499L985 1194q8 -11 8 -23Z"
></glyph
><glyph unicode="_" horiz-adv-x="1036" d="M1087 -201q0 -32 -40 -32H-8q-41 0 -41 32v68q0 15 11.5 24t29.5 9H1047q40 0 40 -33v-68Z"
></glyph
><glyph unicode="`" horiz-adv-x="694" d="M481 1290q0 -14 -18 -14H352q-10 0 -17 3t-13 9t-17 19L74 1565q-8 8 -8 16q0 14 22 14H223q26 0 51 -30L473 1311q8 -8 8 -21Z"
></glyph
><glyph unicode="a" horiz-adv-x="1018" d="M905 78Q905 40 874 33Q794 10 712.5 -2T528 -14Q289 -14 184.5 66.5T80 324v18q0 115 48.5 188t157 108.5T573 674H725v82q0 128 -49 177.5T506 983q-93 0 -159.5 -12.5T193 932q-21 -7 -34.5 1T145 958v80q0 25 29 37q47 21 139.5 43.5T506 1141q399 0 399 -385V78ZM725 145V543H573q-97 0 -155 -10.5T325.5 498t-49 -60.5T262 344V326q0 -72 22.5 -115.5t81 -63.5T528 127q41 0 79 2.5t68.5 6.5t49.5 9Z"
></glyph
><glyph unicode="b" horiz-adv-x="1061" d="M979 492Q979 254 868 120T532 -14Q336 -14 156 20q-28 6 -35.5 15.5T113 68V1501q0 15 9.5 27t27.5 12H254q16 0 27.5 -11.5T293 1501V1120q52 11 114.5 16t124.5 5q113 0 196.5 -33.5T868 1011T951.5 855T979 639V492ZM799 492V639q0 174 -61 259T532 983Q371 983 293 969V156Q443 143 532 143q146 0 206.5 86.5T799 492Z"
></glyph
><glyph unicode="c" horiz-adv-x="889" d="M518 -14Q414 -14 330.5 20.5T191.5 120T109 275T82 483V643q0 155 48.5 266.5t147 171.5T518 1141q84 0 158 -20.5T786 1079q18 -10 23.5 -17.5T815 1036V963q0 -43 -47 -27Q635 983 518 983Q262 983 262 643V483q0 -169 65.5 -254.5T518 143q117 0 250 47q47 17 47 -26V90q0 -18 -6 -26T786 47Q747 26 674.5 6T518 -14Z"
></glyph
><glyph unicode="d" horiz-adv-x="1061" d="M948 68q0 -23 -8.5 -33T905 20Q725 -14 528 -14Q380 -14 279.5 47.5T130.5 224T82 492V639q0 123 27.5 215.5t82.5 156t139.5 97T528 1141q128 0 240 -21v381q0 16 11 27.5t28 11.5H911q17 0 27 -11t10 -28V68ZM768 156V969q-50 9 -107 11.5T528 983Q384 983 323 897T262 639V492q0 -176 60.5 -262.5T528 143q88 0 240 13Z"
></glyph
><glyph unicode="e" horiz-adv-x="1073" d="M547 143q68 0 133.5 13t128 34.5T909 227q22 10 34.5 1.5T956 201V117Q956 96 928 80Q750 -14 547 -14Q419 -14 314.5 31.5T146 186.5T82 477V662q0 222 119.5 350.5T537 1141q145 0 246.5 -58.5T936 915T987 662V551q0 -45 -39 -45H262V477q0 -178 69.5 -256T547 143ZM805 643v19q0 113 -29.5 185T687 951T537 983Q262 983 262 662V643H805Z"
></glyph
><glyph unicode="f" horiz-adv-x="760" d="M719 1446q0 -31 -37 -31H584q-74 0 -99.5 -29T459 1274V1126H674q16 0 27.5 -10.5T713 1090v-80q0 -35 -39 -35H459V41Q459 25 447.5 12.5T420 0H319Q302 0 290.5 12.5T279 41V975L80 997q-39 3 -39 37v56q0 15 11.5 25.5T80 1126H279v148q0 106 33 169t96 89.5T565 1559q57 0 115 -13q39 -11 39 -33v-67Z"
></glyph
><glyph unicode="g" horiz-adv-x="1061" d="M508 -256q100 0 155 21t80 76.5T768 0V14Q728 4 657 -5T539 -14Q82 -14 82 489V639q0 171 50 282t152 165.5T539 1141q161 0 366 -47q26 -5 34.5 -14.5T948 1047V0q0 -220 -110.5 -311.5T508 -403q-107 0 -198.5 25T172 -326q-29 18 -29 47v68q0 18 13 27t34 0q104 -40 162.5 -56T508 -256ZM768 160V967Q647 989 539 989q-76 0 -129.5 -19.5T324 908T277 800T262 639V489q0 -130 30.5 -207T384 171T539 137q49 0 116 6.5T768 160Z"
></glyph
><glyph unicode="h" horiz-adv-x="1087" d="M975 41Q975 24 962 12T934 0H836Q819 0 807 12T795 41V715q0 148 -56.5 208T575 983q-56 0 -139 -14.5T293 926V41Q293 25 280.5 12.5T252 0H152Q137 0 125 12T113 41V1499q0 18 11 29.5t28 11.5H254q18 0 28.5 -11.5T293 1499V1077q71 32 155.5 48T606 1141q111 0 194 -44.5t129 -141T975 715V41Z"
></glyph
><glyph unicode="i" horiz-adv-x="444" d="M315 1348q0 -18 -12 -29.5T274 1307H170q-17 0 -29 12t-12 29v163q0 17 11.5 29t29.5 12H274q19 0 30 -11t11 -30V1348ZM311 41Q311 23 299 11.5T270 0H172Q157 0 144 12T131 41V1085q0 17 12 29t29 12h98q19 0 30 -11t11 -30V41Z"
></glyph
><glyph unicode="j" horiz-adv-x="444" d="M315 1346q0 -17 -11.5 -28T274 1307H170q-15 0 -28 11t-13 28v165q0 16 11.5 28.5T170 1552H274q18 0 29.5 -11.5T315 1511V1346ZM311 -131q0 -152 -63 -212T55 -403q-55 0 -110 8q-37 5 -37 33v75q0 29 43 29H35q59 0 77.5 24.5T131 -131V1085q0 16 10 28.5t27 12.5H274q18 0 27.5 -11t9.5 -30V-131Z"
></glyph
><glyph unicode="k" horiz-adv-x="975" d="M918 27Q918 0 895 0H748Q733 0 724.5 5T700 27L293 530V41Q293 24 280 12T252 0H154Q137 0 125 12T113 41V1499q0 17 11.5 29t29.5 12h98q17 0 29 -12t12 -29V647l409 461q17 18 41 18H887q31 0 31 -22q0 -12 -11 -23L457 594L911 45q7 -7 7 -18Z"
></glyph
><glyph unicode="l" horiz-adv-x="438" d="M309 41Q309 23 299 11.5T272 0H166Q150 0 139.5 11.5T129 41V1501q0 15 9.5 27t27.5 12H272q17 0 27 -11t10 -28V41Z"
></glyph
><glyph unicode="m" horiz-adv-x="1581" d="M113 41v987q0 41 37 49q133 34 230.5 49T561 1141q71 0 135.5 -20.5T797 1059q178 84 340 84q98 0 171.5 -36T1425 987t43 -221V41q0 -18 -12 -29.5T1427 0h-98q-15 0 -28 12t-13 29V766q0 121 -49 170t-137 49q-98 0 -240 -55q19 -71 19 -160V41Q881 25 870.5 12.5T844 0H735Q720 0 710 12T700 41V770q0 86 -17 133.5T632.5 968T543 985Q424 985 293 950V41Q293 23 283 11.5T256 0H147Q133 0 123 12T113 41Z"
></glyph
><glyph unicode="n" horiz-adv-x="1087" d="M975 713V41Q975 24 962 12T934 0H836Q819 0 807 12T795 41V713q0 102 -24.5 162t-77 86T557 987Q431 987 293 950V41Q293 25 280.5 12.5T252 0H152Q137 0 125 12T113 41v987q0 38 37 49q249 64 423 64q115 0 194.5 -28.5t124 -82.5t64 -131.5T975 713Z"
></glyph
><glyph unicode="o" d="M993 485Q993 255 875.5 120.5T537 -14Q317 -14 199.5 120.5T82 485V641q0 231 117.5 365.5T537 1141q221 0 338.5 -134.5T993 641V485ZM813 485V641q0 107 -29.5 183.5T692.5 942T537 983Q398 983 330 893.5T262 641V485Q262 143 537 143q139 0 207.5 89T813 485Z"
></glyph
><glyph unicode="p" horiz-adv-x="1061" d="M979 487Q979 244 866 115T532 -14Q419 -14 293 8V-362q0 -16 -11.5 -27.5T254 -401H150q-17 0 -27 11t-10 28V1047q0 21 9 31t34 16q51 13 117.5 24t131 17t127.5 6q149 0 249 -61.5T930 904T979 635V487ZM799 487V635q0 112 -25 190T689.5 946T532 989Q407 989 293 969V158Q401 137 532 137q144 0 205.5 88T799 487Z"
></glyph
><glyph unicode="q" horiz-adv-x="1061" d="M948 -362q0 -17 -10 -28t-27 -11H807q-16 0 -27.5 11.5T768 -362V8Q645 -14 528 -14Q417 -14 333.5 19T194 116.5t-84 157T82 487V635q0 116 27 209t83 160.5t138.5 102T528 1141q182 0 377 -47q26 -5 34.5 -14.5T948 1047V-362ZM768 158V969q-44 7 -68.5 10T624 985.5T528 989Q384 989 323 898.5T262 635V487q0 -172 61.5 -261T528 137q130 0 240 21Z"
></glyph
><glyph unicode="r" horiz-adv-x="743" d="M537 1143q81 0 139 -10q22 -4 28.5 -13.5T711 1090v-74q0 -21 -8 -28.5T672 981q-70 4 -135 4Q409 985 293 954V41Q293 25 280.5 12.5T252 0H152Q137 0 125 12T113 41v991q0 38 37 49q117 33 209.5 47.5T537 1143Z"
></glyph
><glyph unicode="s" horiz-adv-x="913" d="M428 139q223 0 223 156q0 48 -32 82T498 457L291 563Q189 617 135.5 689T82 862q0 106 55 167.5T279 1116t194 25q83 0 165.5 -18T760 1083q16 -9 22 -14.5t6 -21.5V963q0 -18 -12.5 -26.5T741 936q-57 22 -132.5 36.5T473 987q-96 0 -153.5 -24T262 864q0 -52 33 -88.5T403 700L606 596q86 -44 135 -89t69.5 -94T831 303Q831 198 779 126.5T636 20.5T428 -14Q339 -14 253.5 6.5T121 51Q92 66 92 88v84q0 18 13 27t34 0Q292 139 428 139Z"
></glyph
><glyph unicode="t" horiz-adv-x="768" d="M727 31Q727 1 690 -4Q622 -14 557 -14Q407 -14 343 42.5T279 260V975L80 997q-39 3 -39 37v56q0 36 39 36H279v201q0 34 36 41l107 16h6q14 0 22.5 -9.5T459 1350V1126H680q17 0 29 -12t12 -29v-69q0 -17 -13 -29T680 975H459V260q0 -82 23 -105.5T569 131H684q43 0 43 -29V31Z"
></glyph
><glyph unicode="u" horiz-adv-x="1087" d="M113 414v671q0 17 11.5 29t29.5 12h98q17 0 29 -12t12 -29V414q0 -151 55.5 -213T530 139q47 0 127 11t138 26v909q0 16 11.5 28.5T836 1126H936q17 0 28 -12t11 -29V98Q975 60 938 49Q692 -14 514 -14Q363 -14 274 36T149 179.5T113 414Z"
></glyph
><glyph unicode="v" horiz-adv-x="1057" d="M991 1092q0 -9 -2 -15L713 102Q695 38 648.5 12T528 -14q-72 0 -118 25.5T344 102L68 1077q-2 6 -2 15q0 16 8.5 25t23.5 9H211q27 0 39 -39L485 195q11 -38 20 -49t23 -11q14 0 24 12t19 48l236 892q12 39 39 39H958q17 0 25 -9t8 -25Z"
></glyph
><glyph unicode="w" horiz-adv-x="1581" d="M1518 1085v-8L1319 127Q1305 59 1289 31.5T1244 -5t-97 -9q-56 0 -85.5 10T1014 36.5T979 133L801 829q-4 15 -10 15q-5 0 -6.5 -2.5T780 829L602 133Q579 44 546.5 15T434 -14q-64 0 -95 9T292 31.5T262 127L63 1077v8q0 17 11 29t28 12H213q13 0 23 -9.5T248 1094L418 160q4 -25 16 -25q10 0 17 25L651 946q18 62 82 62H848q65 0 82 -62L1130 160q7 -25 17 -25q12 0 16 25l170 934q2 13 12.5 22.5t22.5 9.5h111q17 0 28 -12t11 -29Z"
></glyph
><glyph unicode="x" horiz-adv-x="1090" d="M1030 23Q1030 0 1004 0H862Q845 0 834 16L541 444L248 20Q235 0 213 0H90Q66 0 66 20q0 15 10 27L444 573L96 1075q-10 17 -10 27q0 24 31 24H250q22 0 41 -28L551 713l262 385q13 19 20.5 23.5T856 1126H975q26 0 26 -24q0 -10 -10 -27L647 586L1022 47q8 -11 8 -24Z"
></glyph
><glyph unicode="y" horiz-adv-x="1065" d="M999 1092q0 -11 -2 -15L659 -102Q626 -219 584 -283T472 -376.5T285 -406q-90 0 -172 19q-43 10 -43 33v75q0 33 39 33h6q135 -12 182 -12q91 0 134.5 35.5T500 -84L520 0H492Q437 0 402 26T340 141L68 1077q-2 4 -2 15q0 34 36 34H215q12 0 22 -10t13 -22L492 205q11 -45 38 -45h33l250 936q3 13 14 21.5t25 8.5H967q32 0 32 -34Z"
></glyph
><glyph unicode="z" horiz-adv-x="948" d="M866 41Q866 23 854 11.5T825 0H207Q146 0 114 32.5T82 113v39q0 42 10.5 70.5T129 285L657 942q9 11 9 19q0 14 -21 14H147q-15 0 -28 12t-13 29v69q0 17 12 29t29 12H750q114 0 114 -100V977q0 -57 -47 -113L279 190Q268 180 268 168q0 -16 17 -16H825q17 0 29 -12t12 -29V41Z"
></glyph
><glyph unicode="{" horiz-adv-x="659" d="M614 -356q0 -19 -12 -30t-29 -11H469q-127 0 -194 25.5T182 -286t-26 171V246q0 97 -25.5 151T33 502V621q73 52 98 105.5T156 874v365q0 111 26.5 171.5t93 86T469 1522H571q17 0 29 -12t12 -29v-68q0 -17 -12 -29t-29 -12H479q-90 0 -115.5 -25T338 1239V874Q338 764 305 689T193 559Q272 503 305 430T338 246V-115q0 -45 5.5 -69T363 -222t43 -20t73 -6h94q19 0 30 -11.5T614 -289v-67Z"
></glyph
><glyph unicode="|" horiz-adv-x="444" d="M313 -358q0 -16 -10.5 -27.5T276 -397H170q-15 0 -27 12t-12 27V1483q0 15 12 27t27 12H276q16 0 26.5 -11.5T313 1483V-358Z"
></glyph
><glyph unicode="}" horiz-adv-x="659" d="M627 502Q555 451 529.5 396.5T504 246V-115q0 -112 -26.5 -171.5t-93 -85T190 -397H86q-17 0 -29 12t-12 29v67q0 17 11.5 29T86 -248h94q90 0 116 25.5T322 -115V246q0 74 14 129.5t46 101T467 559Q386 615 354 689.5T322 874v365q0 83 -26 108t-116 25H88q-15 0 -28 13t-13 28v68q0 15 13 28t28 13H190q128 0 194 -25.5T477 1411t27 -172V874q0 -93 25.5 -147.5T627 621V502Z"
></glyph
><glyph unicode="~" horiz-adv-x="1167" d="M1020 956q0 -134 -53.5 -200T793 690q-83 0 -158 58L475 874q-39 33 -58 44.5T379 930q-51 0 -66.5 -28T297 813V760q0 -20 -13.5 -32.5T252 715H193q-19 0 -32.5 12.5T147 760v53q0 133 60 201.5T379 1083q82 0 156 -57Q642 938 709 887q22 -18 46 -29.5T793 846q51 0 64 22.5T870 956v58q0 18 13.5 31.5T915 1059h60q13 0 23 -6t16 -16t6 -23V956Z"
></glyph
><glyph unicode="&#xa0;" horiz-adv-x="1198" d=""
></glyph
><glyph unicode="&#xa1;" horiz-adv-x="397" d="M285 690L301 -375q0 -17 -12 -28t-29 -11H139q-15 0 -28 11t-13 28L113 690q0 16 12 27.5T154 729h92q18 0 28.5 -11.5T285 690ZM297 1087V895q0 -17 -11.5 -28T258 856H143q-16 0 -27.5 11.5T104 895v192q0 16 11.5 27.5T143 1126H258q17 0 28 -11t11 -28Z"
></glyph
><glyph unicode="&#xa2;" horiz-adv-x="1141" d="M539 1130v191q0 15 12 28t29 13h84q15 0 28 -13t13 -28V1137q117 -11 204 -58q18 -10 23.5 -17.5T938 1036V963q0 -43 -47 -27Q758 983 641 983Q385 983 385 643V483q0 -169 65.5 -254.5T641 143q117 0 250 47q47 17 47 -26V90q0 -18 -6 -26T909 47Q816 -1 705 -10V-197q0 -15 -13 -28t-28 -13H580q-17 0 -29 13t-12 28V-4Q434 17 358.5 82T244 249.5T205 483V643q0 199 87 327.5T539 1130Z"
></glyph
><glyph unicode="&#xa3;" horiz-adv-x="1182" d="M711 1362q-81 0 -133 -17.5T498 1288T457 1178T444 1004V870H885q16 0 27.5 -10.5T924 834V748q0 -16 -12.5 -26.5T883 711H444V399q0 -68 -20 -128.5T373 156h653q41 0 41 -31V35Q1067 0 1026 0H209Q174 0 174 31v80q0 12 21 47q35 58 49 110.5T258 399V711H152q-18 0 -27.5 10.5T115 748v86q0 14 12 25t29 11H258v134q0 178 41.5 290T441 1463t270 57q170 0 323 -60q18 -6 24.5 -14t6.5 -29v-78q0 -40 -41 -28q-191 51 -313 51Z"
></glyph
><glyph unicode="&#xa4;" horiz-adv-x="1194" d="M1100 1176q0 -18 -15 -31L918 977q67 -95 67 -213q0 -61 -16.5 -114T915 547L1083 379q15 -13 15 -31q0 -15 -11 -24l-55 -56q-10 -10 -22 -10q-17 0 -31 14L807 444Q712 377 598 377q-118 0 -213 67L217 276Q201 260 184 260q-10 0 -20 10l-55 58Q98 341 98 350q0 18 15 31L279 547q-70 92 -70 217q0 119 65 211L109 1141q-15 13 -15 30q0 18 10 25l58 55q11 11 22 11q14 0 31 -17L379 1081q97 70 217 70q59 0 116 -19t101 -51l168 168q15 15 31 15q13 0 22 -11l56 -55q10 -10 10 -22ZM840 764q0 101 -72.5 172.5T594 1008q-101 0 -173.5 -71.5T348 764q0 -50 18.5 -93.5T421 591t79.5 -54.5T594 518q67 0 123 33.5T806.5 641T840 764Z"
></glyph
><glyph unicode="&#xa5;" horiz-adv-x="1210" d="M1151 473q0 -17 -12 -29t-29 -12H700V41Q700 23 690 11.5T664 0H547Q532 0 522 12T512 41V432H100q-15 0 -28 13T59 473v62q0 16 12 28t29 12H512v43L399 844H100q-15 0 -28 12T59 885v61q0 17 12 29t29 12H328L84 1470q-6 17 -6 25q0 27 33 27H240q9 0 19.5 -9T274 1493L606 799l332 694q12 29 35 29h127q35 0 35 -29q0 -10 -7 -23L885 987h225q19 0 30 -11t11 -30V885q0 -18 -12 -29.5T1110 844H813L700 618V575h410q19 0 30 -11t11 -29V473Z"
></glyph
><glyph unicode="&#xa6;" horiz-adv-x="444" d="M313 741q0 -15 -10.5 -28T276 700H168q-16 0 -26.5 13T131 741v711q0 16 10 27.5t27 11.5H276q17 0 27 -11.5T313 1452V741ZM313 -391q0 -17 -10.5 -29T276 -432H168q-16 0 -26.5 12T131 -391V319q0 16 10 27.5T168 358H276q17 0 27 -11.5T313 319V-391Z"
></glyph
><glyph unicode="&#xa7;" horiz-adv-x="1083" d="M498 -442q-105 0 -208 24t-163 49q-22 12 -28.5 17.5T92 -332v105q0 36 39 24q69 -22 124 -36.5T368 -263t130 -11q171 0 239 61.5T805 -35q0 55 -18 94.5T722.5 138T584 231L354 369Q250 431 188.5 490.5t-85 120T80 754q0 59 17.5 109T150 969q-33 34 -51.5 90T80 1176q0 177 115.5 268.5T569 1536q79 0 150 -12.5T847 1494t93 -32q35 -16 35 -37V1321q0 -37 -39 -25q-69 22 -128 37.5t-116 24T569 1366q-172 0 -233.5 -43.5T274 1176q0 -48 17.5 -83.5T352 1022T481 936L705 805Q877 705 940.5 612T1004 395q0 -131 -60 -223q60 -88 60 -207q0 -178 -114.5 -292.5T498 -442ZM815 395q0 57 -18.5 95T732 566T606 653L422 766q-15 10 -43 27t-57 35.5T274 862Q264 832 260 812t-4 -58q0 -47 20.5 -87t61 -76T438 520L664 389q71 -42 137 -88q14 45 14 94Z"
></glyph
><glyph unicode="&#xa8;" horiz-adv-x="717" d="M618 1352q0 -16 -12.5 -27.5T578 1313H498q-17 0 -29 11t-12 28v166q0 15 12 28t29 13h80q15 0 27.5 -13.5T618 1518V1352ZM260 1352q0 -17 -12 -28t-29 -11H139q-15 0 -28 11t-13 28v166q0 15 13 28t28 13h80q17 0 29 -13t12 -28V1352Z"
></glyph
><glyph unicode="&#xa9;" horiz-adv-x="713" d="M215 1241v16q0 179 154 179q54 0 94 -21q14 -7 14 -24v-21q0 -28 -26 -18q-66 14 -82 14q-40 0 -59 -25.5T291 1257v-16q0 -59 19.5 -83.5T369 1133q16 0 31.5 2.5t30 6.5t20.5 5q26 10 26 -19v-20q0 -17 -14 -25q-38 -20 -94 -20q-154 0 -154 178ZM672 1245q0 -84 -42 -153.5T518.5 982T369 942q-81 0 -151.5 40t-111 110T66 1245q0 81 40.5 151T217 1507t152 41q81 0 150 -40.5T630 1397t42 -152ZM604 1245q0 97 -68.5 167.5T369 1483q-99 0 -167.5 -70.5T133 1245q0 -66 31 -120t84.5 -85.5T369 1008q66 0 119 31t84.5 85T604 1245Z"
></glyph
><glyph unicode="&#xaa;" horiz-adv-x="592" d="M528 922q0 -28 -20 -33Q417 862 307 862q-136 0 -197 48.5T49 1063v14q0 98 70.5 143.5T340 1266h66v26q0 72 -25 100.5T295 1421q-54 0 -172 -10h-4q-29 0 -29 27v43q0 24 31 28q95 19 174 19q121 0 177 -59t56 -177V922ZM408 969v211H360H342q-64 -1 -103 -11.5T184 1136t-16 -59v-14q0 -56 29.5 -80.5T307 958q38 0 101 11Z"
></glyph
><glyph unicode="&#xab;" horiz-adv-x="1231" d="M1155 162q0 -19 -22 -19H997q-22 0 -43 21L608 510q-22 22 -22 57q0 34 22 58L954 971q21 20 43 20h136q11 0 16.5 -4.5T1155 973q0 -15 -12 -27L778 567L1143 188q12 -12 12 -26ZM606 162q0 -19 -22 -19H449q-23 0 -43 21L59 510Q37 532 37 567q0 34 22 58L406 971q20 20 43 20H584q11 0 16.5 -4.5T606 973q0 -15 -12 -27L229 567L594 188q12 -12 12 -26Z"
></glyph
><glyph unicode="&#xac;" horiz-adv-x="1167" d="M1020 498q0 -17 -13 -29T979 457H893q-17 0 -29 12t-12 29V946H188q-41 0 -41 33v98q0 33 41 33H985q35 0 35 -35V498Z"
></glyph
><glyph unicode="&#xad;" horiz-adv-x="645" d="M565 551q0 -35 -39 -35H119q-39 0 -39 35v96q0 17 11 27t28 10H526q39 0 39 -37V551Z"
></glyph
><glyph unicode="&#xae;" horiz-adv-x="713" d="M672 1245q0 -84 -42 -153.5T518.5 982T369 942q-81 0 -151.5 40t-111 110T66 1245q0 81 40.5 151T217 1507t152 41q81 0 150 -40.5T630 1397t42 -152ZM604 1245q0 97 -68.5 167.5T369 1483q-99 0 -167.5 -70.5T133 1245q0 -66 31 -120t84.5 -85.5T369 1008q66 0 119 31t84.5 85T604 1245ZM317 1206V1098q0 -21 -20 -21H260q-18 0 -18 21v299q0 22 22 26q38 4 96 4q146 0 146 -108q0 -76 -68 -100l70 -115q7 -10 4.5 -18.5T500 1077H449q-12 0 -19 13l-68 116H317ZM315 1264h37q44 0 62 11t18 42q0 53 -80 53H315V1264Z"
></glyph
><glyph unicode="&#xaf;" horiz-adv-x="1036" d="M1087 1654q0 -32 -40 -32H-8q-41 0 -41 32v68q0 15 11.5 24t29.5 9H1047q40 0 40 -33v-68Z"
></glyph
><glyph unicode="&#xb0;" horiz-adv-x="680" d="M633 1245q0 -80 -39 -146.5T488.5 993T342 954q-79 0 -146.5 39.5t-107 107T49 1245q0 77 39.5 144.5t107 107T342 1536q80 0 146.5 -39T594 1391.5T633 1245ZM522 1245q0 48 -24.5 89.5t-66 66T342 1425q-48 0 -89.5 -24.5t-66 -66T162 1245q0 -48 24.5 -89.5t66 -66T342 1065q48 0 89.5 24.5t66 66T522 1245Z"
></glyph
><glyph unicode="&#xb1;" horiz-adv-x="1178" d="M1055 33Q1055 0 1014 0H164Q123 0 123 33v84q0 15 11.5 24t29.5 9h850q16 0 28.5 -9T1055 117V33ZM1055 752q0 -33 -41 -33H670V377q0 -18 -9 -29.5T637 336H539q-33 0 -33 41V719H164q-41 0 -41 33v98q0 15 11.5 24t29.5 9H506v344q0 41 33 41h98q15 0 24 -12.5t9 -28.5V883h344q16 0 28.5 -9T1055 850V752Z"
></glyph
><glyph unicode="&#xb2;" horiz-adv-x="666" d="M592 1341q0 -74 -36.5 -130.5T436 1096L332 1022Q278 984 249 952.5t-38.5 -63T201 813H555q12 0 21.5 -6.5T586 788V713q0 -12 -9.5 -18.5T555 688H96q-12 0 -20 8t-8 21v82q0 67 18.5 122.5t58.5 103T252 1118l113 76q49 34 67.5 61.5T451 1323q0 35 -13 54.5T396.5 1405t-79.5 8q-75 0 -208 -37q-29 -8 -29 23v51q0 25 20 35q115 51 234 51q80 0 137.5 -20.5t89 -64.5T592 1341Z"
></glyph
><glyph unicode="&#xb3;" horiz-adv-x="659" d="M293 680Q177 680 90 721Q70 731 70 756v51q0 32 28 22q41 -11 93 -18.5T287 803q86 0 124 29t38 92v22q0 121 -119 121H127q-11 0 -20 8t-9 19v63q0 27 29 27H326q74 0 98.5 31.5T449 1296v13q0 104 -162 104q-94 0 -189 -27q-28 -8 -28 23v51q0 25 20 35q87 41 211 41q137 0 211 -50t74 -165v-14q0 -118 -94 -183q92 -60 92 -178V924Q584 808 505 745T293 680Z"
></glyph
><glyph unicode="&#xb4;" horiz-adv-x="694" d="M629 1581q0 -8 -8 -16L389 1307q-18 -20 -25 -25.5T342 1276H231q-18 0 -18 14q0 13 8 21l201 254q16 20 24 25t25 5H606q23 0 23 -14Z"
></glyph
><glyph unicode="&#xb5;" horiz-adv-x="1087" d="M975 90Q975 55 936 43Q861 16 758 1T557 -14Q394 -14 293 45V-360q0 -17 -13 -29t-28 -12H154q-17 0 -29 12t-12 29V1085q0 17 11 29t28 12H254q17 0 28 -12t11 -29V412q0 -143 64 -208T557 139q60 0 126 8t112 21v917q0 16 11.5 28.5T836 1126H936q17 0 28 -12t11 -29V90Z"
></glyph
><glyph unicode="&#xb6;" horiz-adv-x="1229" d="M1122 -360q0 -17 -10 -28t-25 -11h-47q-14 0 -24 12t-10 27V1411H887V-360q0 -15 -10 -27t-25 -12H805q-15 0 -25 12t-10 27V539H557q-141 0 -251 53T135 748T74 995v70q0 144 61 247.5T305.5 1469T557 1522h533q32 0 32 -39V-360Z"
></glyph
><glyph unicode="&#xb7;" horiz-adv-x="389" d="M291 707q0 -18 -11.5 -29.5T252 666H137q-15 0 -27 12T98 707V897q0 16 11 27.5T137 936H252q16 0 27.5 -11.5T291 897V707Z"
></glyph
><glyph unicode="&#xb8;" horiz-adv-x="684" d="M500 -80q0 -8 -8 -16L260 -354q-18 -20 -25 -25.5T213 -385H102q-18 0 -18 14q0 13 8 21L291 -96q25 30 51 30H477q23 0 23 -14Z"
></glyph
><glyph unicode="&#xb9;" horiz-adv-x="526" d="M379 707q0 -27 -25 -27H262q-22 0 -22 27v673L96 1317q-26 -13 -26 14v86q0 15 16 23l147 67q31 15 54 15h65q27 0 27 -25V707Z"
></glyph
><glyph unicode="&#xba;" horiz-adv-x="635" d="M584 1159q0 -95 -30 -161.5t-89 -101T319 862q-129 0 -197.5 77T53 1159v72q0 143 68.5 220T319 1528q130 0 197.5 -76.5T584 1231v-72ZM459 1159v72q0 96 -32.5 142T319 1419q-74 0 -108.5 -46.5T176 1231v-72q0 -95 34.5 -142.5T319 969q75 0 107.5 47.5T459 1159Z"
></glyph
><glyph unicode="&#xbb;" horiz-adv-x="1231" d="M1194 567q0 -36 -23 -57L825 164Q805 143 782 143H647q-22 0 -22 19q0 14 12 26l364 379L637 946q-12 12 -12 27q0 18 22 18H782q23 0 43 -20L1171 625q23 -23 23 -58ZM645 567q0 -14 -5 -29.5T623 510L276 164Q256 143 233 143H98q-22 0 -22 19q0 14 12 26L453 567L88 946Q76 958 76 973q0 18 22 18H233q23 0 43 -20L623 625q22 -24 22 -58Z"
></glyph
><glyph unicode="&#xbc;" horiz-adv-x="1493" d="M1229 1505q0 -8 -10 -28L367 35Q353 11 343 1.5T317 -8H217q-22 0 -22 20q0 3 8 27l850 1442q15 25 24.5 33t26.5 8h104q21 0 21 -17ZM379 707q0 -27 -25 -27H262q-22 0 -22 27v673L96 1317q-26 -13 -26 14v86q0 15 16 23l147 67q31 15 54 15h65q27 0 27 -25V707ZM1419 236q0 -27 -28 -27h-78V31q0 -11 -8 -21T1286 0h-86q-26 0 -26 31V209H862q-28 0 -28 27v88q0 36 12 53l319 450q11 15 29 15h90q29 0 29 -27V326h78q11 0 19.5 -7.5T1419 299V236ZM1174 326V627q0 4 -3 4t-6 -4L967 342q-12 -16 6 -16h201Z"
></glyph
><glyph unicode="&#xbd;" horiz-adv-x="1507" d="M379 707q0 -27 -25 -27H262q-22 0 -22 27v673L96 1317q-10 -5 -18 -2.5T70 1327v90q0 15 16 23l147 67q31 15 54 15h65q27 0 27 -25V707ZM1434 653q0 -49 -17 -91t-52.5 -80.5T1278 408L1174 334q-58 -41 -86 -71.5T1051 203t-9 -72v-6h355q13 0 21.5 -6.5T1427 100V25q0 -12 -8.5 -18.5T1397 0H938Q927 0 918 8t-9 21v82q0 103 42.5 177T1094 430l112 76q51 35 68.5 62.5T1292 635q0 53 -29.5 71.5T1159 725q-74 0 -209 -37q-28 -8 -28 23v51q0 24 20 35q113 51 234 51q80 0 137.5 -20.5t89 -64.5T1434 653ZM1229 1505q0 -8 -10 -28L367 35Q353 11 343 1.5T317 -8H217q-22 0 -22 20q0 3 8 27l850 1442q15 25 24.5 33t26.5 8h104q21 0 21 -17Z"
></glyph
><glyph unicode="&#xbe;" horiz-adv-x="1655" d="M1579 236q0 -27 -29 -27h-77V31q0 -11 -8 -21T1446 0h-86q-27 0 -27 31V209H1022q-29 0 -29 27v88q0 36 13 53l319 450q10 15 29 15h90q29 0 29 -27V326h77q12 0 20.5 -7.5T1579 299V236ZM1333 326V627q0 4 -2.5 4t-5.5 -4L1126 342q-11 -16 7 -16h200ZM1362 1505q0 -8 -10 -28L500 35Q486 11 476 1.5T451 -8H350q-22 0 -22 20q0 3 8 27l850 1442q15 25 24.5 33t26.5 8h104q21 0 21 -17ZM293 680Q177 680 90 721Q70 731 70 756v51q0 32 28 22q41 -11 93 -18.5T287 803q86 0 124 29t38 92v22q0 121 -119 121H127q-11 0 -20 8t-9 19v63q0 27 29 27H326q74 0 98.5 31.5T449 1296v13q0 104 -162 104q-94 0 -189 -27q-28 -8 -28 23v51q0 25 20 35q87 41 211 41q137 0 211 -50t74 -165v-14q0 -118 -94 -183q92 -60 92 -178V924Q584 808 505 745T293 680Z"
></glyph
><glyph unicode="&#xbf;" horiz-adv-x="893" d="M465 1087q0 17 11 28t28 11H618q17 0 29 -11t12 -28V897q0 -16 -11.5 -28.5T618 856H504q-15 0 -27 12t-12 29v190ZM498 -248q91 0 175 19t191 53q39 12 39 -25v-98q0 -22 -35 -37q-56 -24 -162 -49T498 -410q-190 0 -300 72T88 -100v24q0 41 8 75.5t29.5 75t56.5 88T274 274l93 105q66 74 87 111.5T475 590V690q0 16 12.5 27.5T516 729h90q16 0 27.5 -10.5T645 690V590q0 -67 -12 -114T594.5 387T510 281L416 176Q341 94 315 41T289 -76v-24q0 -55 22 -87t67.5 -46.5T498 -248Z"
></glyph
><glyph unicode="&#xc0;" horiz-adv-x="1276" d="M1227 33Q1227 0 1192 0H1071q-28 0 -35 31L903 502H373L242 31Q239 18 227 9T205 0H84Q70 0 59.5 9.5T49 33q0 10 2 14L430 1380q25 87 83 121.5T639 1536q44 0 84 -13.5t73 -48T846 1382L1225 47q2 -4 2 -14ZM864 664L678 1337q-10 37 -39 37q-31 0 -41 -37L412 664H864ZM778 1641q0 -14 -18 -14H649q-10 0 -17 3t-13 9t-17 19L371 1916q-8 8 -8 16q0 14 22 14H520q26 0 51 -30L770 1662q8 -8 8 -21Z"
></glyph
><glyph unicode="&#xc1;" horiz-adv-x="1276" d="M1227 33Q1227 0 1192 0H1071q-28 0 -35 31L903 502H373L242 31Q239 18 227 9T205 0H84Q70 0 59.5 9.5T49 33q0 10 2 14L430 1380q25 87 83 121.5T639 1536q44 0 84 -13.5t73 -48T846 1382L1225 47q2 -4 2 -14ZM864 664L678 1337q-10 37 -39 37q-31 0 -41 -37L412 664H864ZM950 1932q0 -8 -8 -16L710 1658q-18 -20 -25 -25.5T663 1627H552q-18 0 -18 14q0 13 8 21l201 254q16 20 24 25t25 5H927q23 0 23 -14Z"
></glyph
><glyph unicode="&#xc2;" horiz-adv-x="1276" d="M1227 33Q1227 0 1192 0H1071q-28 0 -35 31L903 502H373L242 31Q239 18 227 9T205 0H84Q70 0 59.5 9.5T49 33q0 10 2 14L430 1380q25 87 83 121.5T639 1536q44 0 84 -13.5t73 -48T846 1382L1225 47q2 -4 2 -14ZM864 664L678 1337q-10 37 -39 37q-31 0 -41 -37L412 664H864ZM989 1641q0 -14 -19 -14H864q-15 0 -22 5.5T817 1658L649 1856L479 1658q-17 -19 -25 -25t-22 -6H325q-18 0 -18 14q0 13 8 21l197 254q16 20 24 25t25 5H735q26 0 51 -30L981 1662q8 -8 8 -21Z"
></glyph
><glyph unicode="&#xc3;" horiz-adv-x="1276" d="M1227 33Q1227 0 1192 0H1071q-28 0 -35 31L903 502H373L242 31Q239 18 227 9T205 0H84Q70 0 59.5 9.5T49 33q0 10 2 14L430 1380q25 87 83 121.5T639 1536q44 0 84 -13.5t73 -48T846 1382L1225 47q2 -4 2 -14ZM864 664L678 1337q-10 37 -39 37q-31 0 -41 -37L412 664H864ZM1008 1831q0 -108 -46 -161.5T815 1616q-76 0 -131 43L559 1759q-34 29 -49.5 37t-34.5 8q-35 0 -49 -23t-14 -71v-43q0 -15 -10 -25t-25 -10H313q-14 0 -23.5 10.5T280 1667v43q0 109 51.5 166T475 1933q60 0 123 -49L743 1770q20 -14 39 -21.5t33 -7.5q32 0 46.5 20t14.5 70v47q0 14 10.5 24.5T911 1913h64q13 0 23 -11t10 -24v-47Z"
></glyph
><glyph unicode="&#xc4;" horiz-adv-x="1276" d="M1227 33Q1227 0 1192 0H1071q-28 0 -35 31L903 502H373L242 31Q239 18 227 9T205 0H84Q70 0 59.5 9.5T49 33q0 10 2 14L430 1380q25 87 83 121.5T639 1536q44 0 84 -13.5t73 -48T846 1382L1225 47q2 -4 2 -14ZM864 664L678 1337q-10 37 -39 37q-31 0 -41 -37L412 664H864ZM911 1694q0 -16 -12.5 -27.5T871 1655H791q-17 0 -29 11t-12 28v166q0 15 12 28t29 13h80q15 0 27.5 -13.5T911 1860V1694ZM553 1694q0 -17 -12 -28t-29 -11H432q-15 0 -28 11t-13 28v166q0 15 13 28t28 13h80q17 0 29 -13t12 -28V1694Z"
></glyph
><glyph unicode="&#xc5;" horiz-adv-x="1276" d="M1227 33Q1227 0 1192 0H1071q-28 0 -35 31L903 502H373L242 31Q239 18 227 9T205 0H84Q70 0 59.5 9.5T49 33q0 10 2 14L430 1380q25 87 83 121.5T639 1536q44 0 84 -13.5t73 -48T846 1382L1225 47q2 -4 2 -14ZM864 664L678 1337q-10 37 -39 37q-31 0 -41 -37L412 664H864ZM844 1798q0 -85 -61 -146T637 1591q-57 0 -105 28t-76 75t-28 104q0 57 28 104.5t75.5 76T637 2007q58 0 104.5 -28T816 1903t28 -105ZM746 1800q0 45 -32.5 75.5T637 1906q-44 0 -75 -31t-31 -75q0 -44 30.5 -76.5T637 1691q45 0 77 32t32 77Z"
></glyph
><glyph unicode="&#xc6;" horiz-adv-x="1731" d="M1640 29Q1640 3 1620 0Q1487 -14 1282 -14q-219 0 -327.5 90T846 367V502H356L225 31Q218 0 188 0H68Q54 0 43.5 9.5T33 33q0 10 2 14L414 1368q46 154 209 154h997q8 0 14 -10t6 -19V1384q0 -24 -22 -24H1032V870h567q19 0 30 -11t11 -30V752q0 -18 -12 -29.5T1599 711H1032V367q0 -83 18 -127.5t72 -65T1284 154h334q22 0 22 -25V29ZM846 664v696H623q-32 0 -41 -35L395 664H846Z"
></glyph
><glyph unicode="&#xc7;" d="M756 -80q0 -8 -8 -16L516 -354q-18 -20 -25 -25.5T469 -385H358q-18 0 -18 14q0 9 8 21L547 -96q25 30 51 30H733q23 0 23 -14ZM98 618v3V903q0 343 154.5 488T645 1536q63 0 129.5 -14t123 -34T987 1450q21 -12 21 -33V1317q0 -13 -10 -18.5T973 1298q-54 21 -155 45.5T645 1368Q285 1368 285 903V621q0 -170 45 -273.5T455 199T645 154q125 0 328 69q17 6 26 1t9 -19V104q0 -20 -21 -32Q954 54 897.5 34T774.5 0T645 -14Q407 -14 252.5 131T98 618Z"
></glyph
><glyph unicode="&#xc8;" d="M985 25Q985 -1 965 -4Q868 -14 565 -14Q420 -14 323.5 25T178 149T129 367v788q0 199 108 290t328 91q102 0 221 -3t179 -9q20 -3 20 -29V1393q0 -25 -22 -25H567q-108 0 -162 -20.5t-72 -65T315 1155V870H944q19 0 30 -11t11 -30V752q0 -18 -12 -29.5T944 711H315V367q0 -83 18 -127.5t72 -65T567 154H963q22 0 22 -25V25ZM707 1639q0 -14 -18 -14H578q-10 0 -17 3t-13 9t-17 19L300 1914q-8 8 -8 16q0 14 22 14H449q26 0 51 -30L699 1660q8 -8 8 -21Z"
></glyph
><glyph unicode="&#xc9;" d="M985 25Q985 -1 965 -4Q868 -14 565 -14Q420 -14 323.5 25T178 149T129 367v788q0 199 108 290t328 91q102 0 221 -3t179 -9q20 -3 20 -29V1393q0 -25 -22 -25H567q-108 0 -162 -20.5t-72 -65T315 1155V870H944q19 0 30 -11t11 -30V752q0 -18 -12 -29.5T944 711H315V367q0 -83 18 -127.5t72 -65T567 154H963q22 0 22 -25V25ZM862 1932q0 -8 -8 -16L622 1658q-18 -20 -25 -25.5T575 1627H464q-18 0 -18 14q0 13 8 21l201 254q16 20 24 25t25 5H839q23 0 23 -14Z"
></glyph
><glyph unicode="&#xca;" d="M985 25Q985 -1 965 -4Q868 -14 565 -14Q420 -14 323.5 25T178 149T129 367v788q0 199 108 290t328 91q102 0 221 -3t179 -9q20 -3 20 -29V1393q0 -25 -22 -25H567q-108 0 -162 -20.5t-72 -65T315 1155V870H944q19 0 30 -11t11 -30V752q0 -18 -12 -29.5T944 711H315V367q0 -83 18 -127.5t72 -65T567 154H963q22 0 22 -25V25ZM903 1641q0 -14 -19 -14H778q-15 0 -22 5.5T731 1658L563 1856L393 1658q-17 -19 -25 -25t-22 -6H239q-18 0 -18 14q0 13 8 21l197 254q16 20 24 25t25 5H649q26 0 51 -30L895 1662q8 -8 8 -21Z"
></glyph
><glyph unicode="&#xcb;" d="M985 25Q985 -1 965 -4Q868 -14 565 -14Q420 -14 323.5 25T178 149T129 367v788q0 199 108 290t328 91q102 0 221 -3t179 -9q20 -3 20 -29V1393q0 -25 -22 -25H567q-108 0 -162 -20.5t-72 -65T315 1155V870H944q19 0 30 -11t11 -30V752q0 -18 -12 -29.5T944 711H315V367q0 -83 18 -127.5t72 -65T567 154H963q22 0 22 -25V25ZM837 1698q0 -16 -12.5 -27.5T797 1659H717q-17 0 -29 11t-12 28v166q0 15 12 28t29 13h80q15 0 27.5 -13.5T837 1864V1698ZM479 1698q0 -17 -12 -28t-29 -11H358q-15 0 -28 11t-13 28v166q0 15 13 28t28 13h80q17 0 29 -13t12 -28V1698Z"
></glyph
><glyph unicode="&#xcc;" horiz-adv-x="477" d="M332 41Q332 25 321.5 12.5T295 0H182Q168 0 156.5 11.5T145 41V1483q0 15 11 27t26 12H295q15 0 26 -11t11 -28V41ZM371 1641q0 -14 -18 -14H242q-10 0 -17 3t-13 9t-17 19L-36 1916q-8 8 -8 16q0 14 22 14H113q26 0 51 -30L363 1662q8 -8 8 -21Z"
></glyph
><glyph unicode="&#xcd;" horiz-adv-x="477" d="M332 41Q332 25 321.5 12.5T295 0H182Q168 0 156.5 11.5T145 41V1483q0 15 11 27t26 12H295q15 0 26 -11t11 -28V41ZM522 1932q0 -8 -8 -16L282 1658q-18 -20 -25 -25.5T235 1627H124q-18 0 -18 14q0 13 8 21l201 254q16 20 24 25t25 5H499q23 0 23 -14Z"
></glyph
><glyph unicode="&#xce;" horiz-adv-x="477" d="M332 41Q332 25 321.5 12.5T295 0H182Q168 0 156.5 11.5T145 41V1483q0 15 11 27t26 12H295q15 0 26 -11t11 -28V41ZM571 1641q0 -14 -19 -14H446q-15 0 -22 5.5T399 1658L231 1856L61 1658Q44 1639 36 1633t-22 -6H-93q-18 0 -18 14q0 13 8 21L94 1916q16 20 24 25t25 5H317q26 0 51 -30L563 1662q8 -8 8 -21Z"
></glyph
><glyph unicode="&#xcf;" horiz-adv-x="477" d="M332 41Q332 25 321.5 12.5T295 0H182Q168 0 156.5 11.5T145 41V1483q0 15 11 27t26 12H295q15 0 26 -11t11 -28V41ZM500 1696q0 -16 -12.5 -27.5T460 1657H380q-17 0 -29 11t-12 28v166q0 15 12 28t29 13h80q15 0 27.5 -13.5T500 1862V1696ZM142 1696q0 -17 -12 -28t-29 -11H21q-15 0 -28 11t-13 28v166q0 15 13 28t28 13h80q17 0 29 -13t12 -28V1696Z"
></glyph
><glyph unicode="&#xd0;" horiz-adv-x="1282" d="M1188 623q0 -321 -164 -479T567 -14q-78 0 -160.5 3.5T281 -3.5T195 6q-43 6 -43 51V711H74q-17 0 -29 12T33 752v77q0 17 11.5 29T74 870h78v594q0 44 43 52q43 6 86 9.5t125.5 7T567 1536q195 0 333 -68t213 -211.5T1188 899V623ZM1001 623V899q0 176 -54.5 282.5T795 1332t-228 44q-125 0 -227 -6V870H551q17 0 29 -12t12 -29V752q0 -17 -13 -29T551 711H340V150q66 -5 227 -5q204 0 319 109t115 369Z"
></glyph
><glyph unicode="&#xd1;" horiz-adv-x="1331" d="M1202 59q0 -25 -18 -42T1143 0H1016Q967 0 950 33L317 1235q-3 6 -6 6q-2 0 -2 -6V39Q309 23 298.5 11.5T272 0H166Q129 0 129 25V1464q0 24 17 41t42 17H301q41 0 56 -8.5T385 1481L1014 285l4 -6q2 0 2 6V1483q0 16 10.5 27.5T1057 1522h108q17 0 27 -11t10 -28V59ZM1010 1827q0 -108 -46 -161.5T817 1612q-76 0 -131 43L561 1755q-34 29 -49.5 37t-34.5 8q-35 0 -49 -23t-14 -71v-43q0 -15 -10 -25t-25 -10H315q-14 0 -23.5 10.5T282 1663v43q0 109 51.5 166T477 1929q60 0 123 -49L745 1766q20 -14 39 -21.5t33 -7.5q32 0 46.5 20t14.5 70v47q0 14 10.5 24.5T913 1909h64q13 0 23 -11t10 -24v-47Z"
></glyph
><glyph unicode="&#xd2;" horiz-adv-x="1305" d="M1206 629q0 -167 -40 -289.5t-114 -201T876.5 23T653 -14Q532 -14 430.5 23T254 138.5T138.5 341T98 629V893q0 165 41 288.5T255 1384t175 115.5T653 1536q123 0 223.5 -37T1051 1383.5T1165.5 1183T1206 893V629ZM1018 629V893q0 125 -25.5 218T921 1259t-113 82t-155 27Q287 1368 287 893V629q0 -166 44 -272.5T456 202T653 154q365 0 365 475ZM788 1641q0 -14 -18 -14H659q-10 0 -17 3t-13 9t-17 19L381 1916q-8 8 -8 16q0 14 22 14H530q26 0 51 -30L780 1662q8 -8 8 -21Z"
></glyph
><glyph unicode="&#xd3;" horiz-adv-x="1305" d="M1206 629q0 -167 -40 -289.5t-114 -201T876.5 23T653 -14Q532 -14 430.5 23T254 138.5T138.5 341T98 629V893q0 165 41 288.5T255 1384t175 115.5T653 1536q123 0 223.5 -37T1051 1383.5T1165.5 1183T1206 893V629ZM1018 629V893q0 125 -25.5 218T921 1259t-113 82t-155 27Q287 1368 287 893V629q0 -166 44 -272.5T456 202T653 154q365 0 365 475ZM911 1932q0 -8 -8 -16L671 1658q-18 -20 -25 -25.5T624 1627H513q-18 0 -18 14q0 13 8 21l201 254q16 20 24 25t25 5H888q23 0 23 -14Z"
></glyph
><glyph unicode="&#xd4;" horiz-adv-x="1305" d="M1206 629q0 -167 -40 -289.5t-114 -201T876.5 23T653 -14Q532 -14 430.5 23T254 138.5T138.5 341T98 629V893q0 165 41 288.5T255 1384t175 115.5T653 1536q123 0 223.5 -37T1051 1383.5T1165.5 1183T1206 893V629ZM1018 629V893q0 125 -25.5 218T921 1259t-113 82t-155 27Q287 1368 287 893V629q0 -166 44 -272.5T456 202T653 154q365 0 365 475ZM993 1643q0 -14 -19 -14H868q-15 0 -22 5.5T821 1660L653 1858L483 1660q-17 -19 -25 -25t-22 -6H329q-18 0 -18 14q0 13 8 21l197 254q16 20 24 25t25 5H739q26 0 51 -30L985 1664q8 -8 8 -21Z"
></glyph
><glyph unicode="&#xd5;" horiz-adv-x="1305" d="M1206 629q0 -167 -40 -289.5t-114 -201T876.5 23T653 -14Q532 -14 430.5 23T254 138.5T138.5 341T98 629V893q0 165 41 288.5T255 1384t175 115.5T653 1536q123 0 223.5 -37T1051 1383.5T1165.5 1183T1206 893V629ZM1018 629V893q0 125 -25.5 218T921 1259t-113 82t-155 27Q287 1368 287 893V629q0 -166 44 -272.5T456 202T653 154q365 0 365 475ZM1022 1831q0 -108 -46 -161.5T829 1616q-76 0 -131 43L573 1759q-34 29 -49.5 37t-34.5 8q-35 0 -49 -23t-14 -71v-43q0 -15 -10 -25t-25 -10H327q-14 0 -23.5 10.5T294 1667v43q0 109 51.5 166T489 1933q60 0 123 -49L757 1770q20 -14 39 -21.5t33 -7.5q32 0 46.5 20t14.5 70v47q0 14 10.5 24.5T925 1913h64q13 0 23 -11t10 -24v-47Z"
></glyph
><glyph unicode="&#xd6;" horiz-adv-x="1305" d="M1206 629q0 -167 -40 -289.5t-114 -201T876.5 23T653 -14Q532 -14 430.5 23T254 138.5T138.5 341T98 629V893q0 165 41 288.5T255 1384t175 115.5T653 1536q123 0 223.5 -37T1051 1383.5T1165.5 1183T1206 893V629ZM1018 629V893q0 125 -25.5 218T921 1259t-113 82t-155 27Q287 1368 287 893V629q0 -166 44 -272.5T456 202T653 154q365 0 365 475ZM913 1698q0 -16 -12.5 -27.5T873 1659H793q-17 0 -29 11t-12 28v166q0 15 12 28t29 13h80q15 0 27.5 -13.5T913 1864V1698ZM555 1698q0 -17 -12 -28t-29 -11H434q-15 0 -28 11t-13 28v166q0 15 13 28t28 13h80q17 0 29 -13t12 -28V1698Z"
></glyph
><glyph unicode="&#xd7;" horiz-adv-x="1151" d="M827 420L565 684L303 420Q286 406 272 406q-12 0 -22 10l-68 67q-10 10 -10 23q0 12 14 31L449 801L190 1067q-14 18 -14 31q0 12 10 22l68 68q10 10 22 10q14 0 31 -14L565 918l258 266q19 14 31 14q11 0 23 -10l67 -68q10 -10 10 -22q0 -13 -14 -31L682 801L944 537q14 -19 14 -31q0 -13 -10 -23L881 416Q869 406 858 406q-12 0 -31 14Z"
></glyph
><glyph unicode="&#xd8;" horiz-adv-x="1305" d="M1272 1505q0 -7 -6 -16L1120 1288q86 -150 86 -395V629q0 -167 -40 -289.5t-114 -201T876.5 23T653 -14Q540 -14 444 18.5T279 115L215 25Q187 -14 164 -14H55Q33 -14 33 8q0 7 6 17L186 229Q98 382 98 629V893q0 165 41 288.5T255 1384t175 115.5T653 1536q237 0 377 -131l60 84q29 39 53 39h106q23 0 23 -23ZM922 1255q-93 113 -269 113Q287 1368 287 893V629q0 -122 26 -221l609 847ZM1018 629V893q0 130 -25 217L385 262Q476 154 653 154q88 0 155 27t113 82t71.5 148T1018 629Z"
></glyph
><glyph unicode="&#xd9;" horiz-adv-x="1294" d="M1171 553q0 -145 -34.5 -252t-103 -177.5T869 19.5T647 -14Q521 -14 425.5 19.5T262 123.5T158.5 301T123 553v930q0 16 11.5 27.5T162 1522H272q16 0 27.5 -10.5T311 1483V553q0 -206 76 -307T647 145q124 0 198.5 46t106 135.5T983 553v930q0 16 11.5 27.5T1022 1522h111q16 0 27 -11t11 -28V553ZM766 1641q0 -14 -18 -14H637q-10 0 -17 3t-13 9t-17 19L359 1916q-8 8 -8 16q0 14 22 14H508q26 0 51 -30L758 1662q8 -8 8 -21Z"
></glyph
><glyph unicode="&#xda;" horiz-adv-x="1294" d="M1171 553q0 -145 -34.5 -252t-103 -177.5T869 19.5T647 -14Q521 -14 425.5 19.5T262 123.5T158.5 301T123 553v930q0 16 11.5 27.5T162 1522H272q16 0 27.5 -10.5T311 1483V553q0 -206 76 -307T647 145q124 0 198.5 46t106 135.5T983 553v930q0 16 11.5 27.5T1022 1522h111q16 0 27 -11t11 -28V553ZM950 1932q0 -8 -8 -16L710 1658q-18 -20 -25 -25.5T663 1627H552q-18 0 -18 14q0 13 8 21l201 254q16 20 24 25t25 5H927q23 0 23 -14Z"
></glyph
><glyph unicode="&#xdb;" horiz-adv-x="1294" d="M1171 553q0 -145 -34.5 -252t-103 -177.5T869 19.5T647 -14Q521 -14 425.5 19.5T262 123.5T158.5 301T123 553v930q0 16 11.5 27.5T162 1522H272q16 0 27.5 -10.5T311 1483V553q0 -206 76 -307T647 145q124 0 198.5 46t106 135.5T983 553v930q0 16 11.5 27.5T1022 1522h111q16 0 27 -11t11 -28V553ZM981 1641q0 -14 -19 -14H856q-15 0 -22 5.5T809 1658L641 1856L471 1658q-17 -19 -25 -25t-22 -6H317q-18 0 -18 14q0 13 8 21l197 254q16 20 24 25t25 5H727q26 0 51 -30L973 1662q8 -8 8 -21Z"
></glyph
><glyph unicode="&#xdc;" horiz-adv-x="1294" d="M1171 553q0 -145 -34.5 -252t-103 -177.5T869 19.5T647 -14Q521 -14 425.5 19.5T262 123.5T158.5 301T123 553v930q0 16 11.5 27.5T162 1522H272q16 0 27.5 -10.5T311 1483V553q0 -206 76 -307T647 145q124 0 198.5 46t106 135.5T983 553v930q0 16 11.5 27.5T1022 1522h111q16 0 27 -11t11 -28V553ZM903 1698q0 -16 -12.5 -27.5T863 1659H783q-17 0 -29 11t-12 28v166q0 15 12 28t29 13h80q15 0 27.5 -13.5T903 1864V1698ZM545 1698q0 -17 -12 -28t-29 -11H424q-15 0 -28 11t-13 28v166q0 15 13 28t28 13h80q17 0 29 -13t12 -28V1698Z"
></glyph
><glyph unicode="&#xdd;" horiz-adv-x="1167" d="M1110 1493q0 -9 -6 -23L786 758Q739 650 676 623V41Q676 24 665 12T639 0H526Q511 0 500 12T489 41V623Q429 646 379 758L63 1470q-6 14 -6 23q0 12 9.5 20.5T92 1522H217q10 0 21.5 -9.5T254 1493L537 829q23 -53 47 -53q23 0 47 53l284 664q15 29 35 29h125q16 0 25.5 -8t9.5 -21ZM883 1932q0 -8 -8 -16L643 1658q-18 -20 -25 -25.5T596 1627H485q-18 0 -18 14q0 13 8 21l201 254q16 20 24 25t25 5H860q23 0 23 -14Z"
></glyph
><glyph unicode="&#xde;" horiz-adv-x="1165" d="M1092 872Q1092 626 938.5 518T516 410q-116 0 -203 6V41q0 -17 -9 -29T281 0H166Q150 0 139.5 12T129 41V1483q0 16 10.5 27.5T166 1522H279q15 0 24.5 -11t9.5 -28V1341q25 1 57.5 2.5t72 3T512 1348q580 0 580 -447V872ZM905 872v29q0 155 -95.5 220T516 1186q-158 0 -203 -4V575q141 -6 203 -6q200 0 294.5 71T905 872Z"
></glyph
><glyph unicode="&#xdf;" horiz-adv-x="1143" d="M1053 440q0 -154 -65.5 -256T813 34T567 -14q-36 0 -98 6q-41 4 -41 39v84q0 22 23 22q30 0 48.5 -0.5T539 135q160 0 245.5 68T870 440v29q0 75 -36 134.5T727 697T553 731H477q-15 0 -28 13t-13 28v59q0 17 12 29t29 12h76q99 0 163.5 34.5t94 91.5T840 1122v25q0 117 -66 182.5T571 1395q-143 0 -212.5 -82.5T289 1053V43Q289 26 278.5 13T252 0H143Q127 0 116.5 13T106 43V1053q0 129 32 221.5t93.5 155T379 1522t192 30q135 0 235.5 -43.5T963.5 1374T1020 1147v-25q0 -107 -61.5 -190.5T805 807Q916 769 984.5 679T1053 469V440Z"
></glyph
><glyph unicode="&#xe0;" horiz-adv-x="1018" d="M905 78Q905 40 874 33Q794 10 712.5 -2T528 -14Q289 -14 184.5 66.5T80 324v18q0 115 48.5 188t157 108.5T573 674H725v82q0 128 -49 177.5T506 983q-93 0 -159.5 -12.5T193 932q-21 -7 -34.5 1T145 958v80q0 25 29 37q47 21 139.5 43.5T506 1141q399 0 399 -385V78ZM725 145V543H573q-97 0 -155 -10.5T325.5 498t-49 -60.5T262 344V326q0 -72 22.5 -115.5t81 -63.5T528 127q41 0 79 2.5t68.5 6.5t49.5 9ZM645 1290q0 -14 -18 -14H516q-10 0 -17 3t-13 9t-17 19L238 1565q-8 8 -8 16q0 14 22 14H387q26 0 51 -30L637 1311q8 -8 8 -21Z"
></glyph
><glyph unicode="&#xe1;" horiz-adv-x="1018" d="M905 78Q905 40 874 33Q794 10 712.5 -2T528 -14Q289 -14 184.5 66.5T80 324v18q0 115 48.5 188t157 108.5T573 674H725v82q0 128 -49 177.5T506 983q-93 0 -159.5 -12.5T193 932q-21 -7 -34.5 1T145 958v80q0 25 29 37q47 21 139.5 43.5T506 1141q399 0 399 -385V78ZM725 145V543H573q-97 0 -155 -10.5T325.5 498t-49 -60.5T262 344V326q0 -72 22.5 -115.5t81 -63.5T528 127q41 0 79 2.5t68.5 6.5t49.5 9ZM825 1581q0 -8 -8 -16L585 1307q-18 -20 -25 -25.5T538 1276H427q-18 0 -18 14q0 13 8 21l201 254q16 20 24 25t25 5H802q23 0 23 -14Z"
></glyph
><glyph unicode="&#xe2;" horiz-adv-x="1018" d="M905 78Q905 40 874 33Q794 10 712.5 -2T528 -14Q289 -14 184.5 66.5T80 324v18q0 115 48.5 188t157 108.5T573 674H725v82q0 128 -49 177.5T506 983q-93 0 -159.5 -12.5T193 932q-21 -7 -34.5 1T145 958v80q0 25 29 37q47 21 139.5 43.5T506 1141q399 0 399 -385V78ZM725 145V543H573q-97 0 -155 -10.5T325.5 498t-49 -60.5T262 344V326q0 -72 22.5 -115.5t81 -63.5T528 127q41 0 79 2.5t68.5 6.5t49.5 9ZM852 1290q0 -14 -19 -14H727q-15 0 -22 5.5T680 1307L512 1505L342 1307q-17 -19 -25 -25t-22 -6H188q-18 0 -18 14q0 13 8 21l197 254q16 20 24 25t25 5H598q26 0 51 -30L844 1311q8 -8 8 -21Z"
></glyph
><glyph unicode="&#xe3;" horiz-adv-x="1018" d="M905 78Q905 40 874 33Q794 10 712.5 -2T528 -14Q289 -14 184.5 66.5T80 324v18q0 115 48.5 188t157 108.5T573 674H725v82q0 128 -49 177.5T506 983q-93 0 -159.5 -12.5T193 932q-21 -7 -34.5 1T145 958v80q0 25 29 37q47 21 139.5 43.5T506 1141q399 0 399 -385V78ZM725 145V543H573q-97 0 -155 -10.5T325.5 498t-49 -60.5T262 344V326q0 -72 22.5 -115.5t81 -63.5T528 127q41 0 79 2.5t68.5 6.5t49.5 9ZM895 1497q0 -108 -46 -161.5T702 1282q-76 0 -131 43L446 1425q-34 29 -49.5 37t-34.5 8q-35 0 -49 -23t-14 -71v-43q0 -15 -10 -25t-25 -10H200q-14 0 -23.5 10.5T167 1333v43q0 109 51.5 166T362 1599q60 0 123 -49L630 1436q20 -14 39 -21.5t33 -7.5q32 0 46.5 20t14.5 70v47q0 14 10.5 24.5T798 1579h64q13 0 23 -11t10 -24v-47Z"
></glyph
><glyph unicode="&#xe4;" horiz-adv-x="1018" d="M905 78Q905 40 874 33Q794 10 712.5 -2T528 -14Q289 -14 184.5 66.5T80 324v18q0 115 48.5 188t157 108.5T573 674H725v82q0 128 -49 177.5T506 983q-93 0 -159.5 -12.5T193 932q-21 -7 -34.5 1T145 958v80q0 25 29 37q47 21 139.5 43.5T506 1141q399 0 399 -385V78ZM725 145V543H573q-97 0 -155 -10.5T325.5 498t-49 -60.5T262 344V326q0 -72 22.5 -115.5t81 -63.5T528 127q41 0 79 2.5t68.5 6.5t49.5 9ZM776 1352q0 -16 -12.5 -27.5T736 1313H656q-17 0 -29 11t-12 28v166q0 15 12 28t29 13h80q15 0 27.5 -13.5T776 1518V1352ZM418 1352q0 -17 -12 -28t-29 -11H297q-15 0 -28 11t-13 28v166q0 15 13 28t28 13h80q17 0 29 -13t12 -28V1352Z"
></glyph
><glyph unicode="&#xe5;" horiz-adv-x="1018" d="M905 78Q905 40 874 33Q794 10 712.5 -2T528 -14Q289 -14 184.5 66.5T80 324v18q0 115 48.5 188t157 108.5T573 674H725v82q0 128 -49 177.5T506 983q-93 0 -159.5 -12.5T193 932q-21 -7 -34.5 1T145 958v80q0 25 29 37q47 21 139.5 43.5T506 1141q399 0 399 -385V78ZM725 145V543H573q-97 0 -155 -10.5T325.5 498t-49 -60.5T262 344V326q0 -72 22.5 -115.5t81 -63.5T528 127q41 0 79 2.5t68.5 6.5t49.5 9ZM715 1440q0 -85 -61 -146T508 1233q-57 0 -105 28t-76 75t-28 104q0 57 28 104.5t75.5 76T508 1649q58 0 104.5 -28T687 1545t28 -105ZM617 1442q0 45 -32.5 75.5T508 1548q-44 0 -75 -31t-31 -75q0 -44 30.5 -76.5T508 1333q45 0 77 32t32 77Z"
></glyph
><glyph unicode="&#xe6;" horiz-adv-x="1716" d="M496 -14Q367 -14 274.5 22T131 133.5T80 324v18q0 115 48.5 188t157 108.5T573 674H725v82q0 128 -49 177.5T506 983q-93 0 -159.5 -12.5T193 932q-21 -7 -34.5 1T145 958v80q0 25 29 37q47 21 139.5 43.5T506 1141q239 0 334 -135q118 135 340 135q145 0 246.5 -58.5T1579 915t51 -253V551q0 -45 -39 -45H905V477q0 -178 69.5 -256T1190 143q68 0 133.5 13t128 34.5T1552 227q22 10 34.5 1.5T1599 201V117q0 -21 -28 -37Q1393 -14 1190 -14Q962 -14 844 113Q799 71 710 28.5T496 -14ZM496 129q120 0 229 57V543H573q-97 0 -155 -10.5T325.5 498t-49 -60.5T262 344V326Q262 129 496 129ZM1448 643v19q0 113 -29.5 185T1330 951t-150 32Q911 983 905 678V643h543Z"
></glyph
><glyph unicode="&#xe7;" horiz-adv-x="889" d="M639 -80q0 -8 -8 -16L399 -354q-18 -20 -25 -25.5T352 -385H242q-19 0 -19 14q0 13 8 21L430 -96q18 20 26 25t25 5H616q23 0 23 -14ZM518 -14Q414 -14 330.5 20.5T191.5 120T109 275T82 483V643q0 155 48.5 266.5t147 171.5T518 1141q84 0 158 -20.5T786 1079q18 -10 23.5 -17.5T815 1036V963q0 -43 -47 -27Q635 983 518 983Q262 983 262 643V483q0 -169 65.5 -254.5T518 143q117 0 250 47q47 17 47 -26V90q0 -18 -6 -26T786 47Q747 26 674.5 6T518 -14Z"
></glyph
><glyph unicode="&#xe8;" horiz-adv-x="1073" d="M547 143q68 0 133.5 13t128 34.5T909 227q22 10 34.5 1.5T956 201V117Q956 96 928 80Q750 -14 547 -14Q419 -14 314.5 31.5T146 186.5T82 477V662q0 222 119.5 350.5T537 1141q145 0 246.5 -58.5T936 915T987 662V551q0 -45 -39 -45H262V477q0 -178 69.5 -256T547 143ZM805 643v19q0 113 -29.5 185T687 951T537 983Q262 983 262 662V643H805ZM713 1290q0 -14 -18 -14H584q-10 0 -17 3t-13 9t-17 19L306 1565q-8 8 -8 16q0 14 22 14H455q26 0 51 -30L705 1311q8 -8 8 -21Z"
></glyph
><glyph unicode="&#xe9;" horiz-adv-x="1073" d="M547 143q68 0 133.5 13t128 34.5T909 227q22 10 34.5 1.5T956 201V117Q956 96 928 80Q750 -14 547 -14Q419 -14 314.5 31.5T146 186.5T82 477V662q0 222 119.5 350.5T537 1141q145 0 246.5 -58.5T936 915T987 662V551q0 -45 -39 -45H262V477q0 -178 69.5 -256T547 143ZM805 643v19q0 113 -29.5 185T687 951T537 983Q262 983 262 662V643H805ZM868 1581q0 -8 -8 -16L628 1307q-18 -20 -25 -25.5T581 1276H470q-18 0 -18 14q0 13 8 21l201 254q16 20 24 25t25 5H845q23 0 23 -14Z"
></glyph
><glyph unicode="&#xea;" horiz-adv-x="1073" d="M547 143q68 0 133.5 13t128 34.5T909 227q22 10 34.5 1.5T956 201V117Q956 96 928 80Q750 -14 547 -14Q419 -14 314.5 31.5T146 186.5T82 477V662q0 222 119.5 350.5T537 1141q145 0 246.5 -58.5T936 915T987 662V551q0 -45 -39 -45H262V477q0 -178 69.5 -256T547 143ZM805 643v19q0 113 -29.5 185T687 951T537 983Q262 983 262 662V643H805ZM879 1290q0 -14 -19 -14H754q-15 0 -22 5.5T707 1307L539 1505L369 1307q-17 -19 -25 -25t-22 -6H215q-18 0 -18 14q0 13 8 21l197 254q16 20 24 25t25 5H625q26 0 51 -30L871 1311q8 -8 8 -21Z"
></glyph
><glyph unicode="&#xeb;" horiz-adv-x="1073" d="M547 143q68 0 133.5 13t128 34.5T909 227q22 10 34.5 1.5T956 201V117Q956 96 928 80Q750 -14 547 -14Q419 -14 314.5 31.5T146 186.5T82 477V662q0 222 119.5 350.5T537 1141q145 0 246.5 -58.5T936 915T987 662V551q0 -45 -39 -45H262V477q0 -178 69.5 -256T547 143ZM805 643v19q0 113 -29.5 185T687 951T537 983Q262 983 262 662V643H805ZM805 1352q0 -16 -12.5 -27.5T765 1313H685q-17 0 -29 11t-12 28v166q0 15 12 28t29 13h80q15 0 27.5 -13.5T805 1518V1352ZM447 1352q0 -17 -12 -28t-29 -11H326q-15 0 -28 11t-13 28v166q0 15 13 28t28 13h80q17 0 29 -13t12 -28V1352Z"
></glyph
><glyph unicode="&#xec;" horiz-adv-x="444" d="M311 41Q311 23 299 11.5T270 0H172Q157 0 144 12T131 41V1085q0 17 12 29t29 12h98q19 0 30 -11t11 -30V41ZM348 1290q0 -14 -18 -14H219q-10 0 -17 3t-13 9t-17 19L-59 1565q-8 8 -8 16q0 14 22 14H90q26 0 51 -30L340 1311q8 -8 8 -21Z"
></glyph
><glyph unicode="&#xed;" horiz-adv-x="444" d="M311 41Q311 23 299 11.5T270 0H172Q157 0 144 12T131 41V1085q0 17 12 29t29 12h98q19 0 30 -11t11 -30V41ZM524 1581q0 -8 -8 -16L284 1307q-18 -20 -25 -25.5T237 1276H126q-18 0 -18 14q0 13 8 21l201 254q16 20 24 25t25 5H501q23 0 23 -14Z"
></glyph
><glyph unicode="&#xee;" horiz-adv-x="444" d="M311 41Q311 23 299 11.5T270 0H172Q157 0 144 12T131 41V1085q0 17 12 29t29 12h98q19 0 30 -11t11 -30V41ZM561 1290q0 -14 -19 -14H436q-15 0 -22 5.5T389 1307L221 1505L51 1307Q34 1288 26 1282T4 1276H-103q-18 0 -18 14q0 13 8 21L84 1565q16 20 24 25t25 5H307q26 0 51 -30L553 1311q8 -8 8 -21Z"
></glyph
><glyph unicode="&#xef;" horiz-adv-x="444" d="M311 41Q311 23 299 11.5T270 0H172Q157 0 144 12T131 41V1085q0 17 12 29t29 12h98q19 0 30 -11t11 -30V41ZM481 1352q0 -16 -12.5 -27.5T441 1313H361q-17 0 -29 11t-12 28v166q0 15 12 28t29 13h80q15 0 27.5 -13.5T481 1518V1352ZM123 1352q0 -17 -12 -28T82 1313H2q-15 0 -28 11t-13 28v166q0 15 13 28t28 13H82q17 0 29 -13t12 -28V1352Z"
></glyph
><glyph unicode="&#xf0;" d="M993 498Q993 372 965 278.5T880 119T737 19.5T541 -14Q425 -14 338 21.5T195 123T110.5 283T82 498V610q0 125 29 219t87.5 160.5t144 99.5T539 1122q147 0 229 -73q-31 81 -105.5 152T467 1329L291 1194q-15 -12 -27 -12q-10 0 -22 12l-35 39q-6 6 -6 14q0 19 20 35l125 96q-86 30 -162 45q-32 8 -32 31q0 6 2 10l24 70q7 22 29 22q10 0 16 -2q138 -32 254 -75l193 145q11 8 26 8q15 0 25 -10l35 -37q8 -8 8 -16q0 -13 -21 -29L594 1425q116 -65 194 -144T910.5 1107.5T974 892.5T993 610V498ZM813 498V610q0 116 -28 196T696.5 927.5T539 969Q395 969 329.5 878T264 610V498q0 -177 66 -267T541 141q143 0 207.5 90T813 498Z"
></glyph
><glyph unicode="&#xf1;" horiz-adv-x="1087" d="M975 713V41Q975 24 962 12T934 0H836Q819 0 807 12T795 41V713q0 102 -24.5 162t-77 86T557 987Q431 987 293 950V41Q293 25 280.5 12.5T252 0H152Q137 0 125 12T113 41v987q0 38 37 49q249 64 423 64q115 0 194.5 -28.5t124 -82.5t64 -131.5T975 713ZM915 1497q0 -108 -46 -161.5T722 1282q-76 0 -131 43L466 1425q-34 29 -49.5 37t-34.5 8q-35 0 -49 -23t-14 -71v-43q0 -15 -10 -25t-25 -10H220q-14 0 -23.5 10.5T187 1333v43q0 109 51.5 166T382 1599q60 0 123 -49L650 1436q20 -14 39 -21.5t33 -7.5q32 0 46.5 20t14.5 70v47q0 14 10.5 24.5T818 1579h64q13 0 23 -11t10 -24v-47Z"
></glyph
><glyph unicode="&#xf2;" d="M993 485Q993 255 875.5 120.5T537 -14Q317 -14 199.5 120.5T82 485V641q0 231 117.5 365.5T537 1141q221 0 338.5 -134.5T993 641V485ZM813 485V641q0 107 -29.5 183.5T692.5 942T537 983Q398 983 330 893.5T262 641V485Q262 143 537 143q139 0 207.5 89T813 485ZM655 1290q0 -14 -18 -14H526q-10 0 -17 3t-13 9t-17 19L248 1565q-8 8 -8 16q0 14 22 14H397q26 0 51 -30L647 1311q8 -8 8 -21Z"
></glyph
><glyph unicode="&#xf3;" d="M993 485Q993 255 875.5 120.5T537 -14Q317 -14 199.5 120.5T82 485V641q0 231 117.5 365.5T537 1141q221 0 338.5 -134.5T993 641V485ZM813 485V641q0 107 -29.5 183.5T692.5 942T537 983Q398 983 330 893.5T262 641V485Q262 143 537 143q139 0 207.5 89T813 485ZM852 1581q0 -8 -8 -16L612 1307q-18 -20 -25 -25.5T565 1276H454q-18 0 -18 14q0 13 8 21l201 254q16 20 24 25t25 5H829q23 0 23 -14Z"
></glyph
><glyph unicode="&#xf4;" d="M993 485Q993 255 875.5 120.5T537 -14Q317 -14 199.5 120.5T82 485V641q0 231 117.5 365.5T537 1141q221 0 338.5 -134.5T993 641V485ZM813 485V641q0 107 -29.5 183.5T692.5 942T537 983Q398 983 330 893.5T262 641V485Q262 143 537 143q139 0 207.5 89T813 485ZM881 1290q0 -14 -19 -14H756q-15 0 -22 5.5T709 1307L541 1505L371 1307q-17 -19 -25 -25t-22 -6H217q-18 0 -18 14q0 13 8 21l197 254q16 20 24 25t25 5H627q26 0 51 -30L873 1311q8 -8 8 -21Z"
></glyph
><glyph unicode="&#xf5;" d="M993 485Q993 255 875.5 120.5T537 -14Q317 -14 199.5 120.5T82 485V641q0 231 117.5 365.5T537 1141q221 0 338.5 -134.5T993 641V485ZM813 485V641q0 107 -29.5 183.5T692.5 942T537 983Q398 983 330 893.5T262 641V485Q262 143 537 143q139 0 207.5 89T813 485ZM913 1497q0 -108 -46 -161.5T720 1282q-76 0 -131 43L464 1425q-34 29 -49.5 37t-34.5 8q-35 0 -49 -23t-14 -71v-43q0 -15 -10 -25t-25 -10H218q-14 0 -23.5 10.5T185 1333v43q0 109 51.5 166T380 1599q60 0 123 -49L648 1436q20 -14 39 -21.5t33 -7.5q32 0 46.5 20t14.5 70v47q0 14 10.5 24.5T816 1579h64q13 0 23 -11t10 -24v-47Z"
></glyph
><glyph unicode="&#xf6;" d="M993 485Q993 255 875.5 120.5T537 -14Q317 -14 199.5 120.5T82 485V641q0 231 117.5 365.5T537 1141q221 0 338.5 -134.5T993 641V485ZM813 485V641q0 107 -29.5 183.5T692.5 942T537 983Q398 983 330 893.5T262 641V485Q262 143 537 143q139 0 207.5 89T813 485ZM794 1352q0 -16 -12.5 -27.5T754 1313H674q-17 0 -29 11t-12 28v166q0 15 12 28t29 13h80q15 0 27.5 -13.5T794 1518V1352ZM436 1352q0 -17 -12 -28t-29 -11H315q-15 0 -28 11t-13 28v166q0 15 13 28t28 13h80q17 0 29 -13t12 -28V1352Z"
></glyph
><glyph unicode="&#xf7;" horiz-adv-x="1165" d="M678 1079q0 -15 -12 -28t-27 -13H524q-14 0 -27.5 12.5T483 1079v181q0 16 13 27t28 11H639q16 0 27.5 -11.5T678 1260V1079ZM1018 750q0 -33 -41 -33H188q-41 0 -41 33V850q0 15 12.5 24t28.5 9H977q16 0 28.5 -9T1018 850V750ZM678 332q0 -16 -11.5 -27.5T639 293H524q-15 0 -28 11t-13 28V514q0 16 12.5 27.5T524 553H639q17 0 28 -12t11 -27V332Z"
></glyph
><glyph unicode="&#xf8;" d="M1061 1178q0 -15 -8 -23L909 963q42 -62 63 -144T993 641V485Q993 255 875.5 120.5T537 -14Q363 -14 252 72L162 -51Q145 -72 129 -72H29q-17 0 -17 17q0 14 8 22L166 164Q82 292 82 485V641q0 231 117.5 365.5T537 1141q60 0 110 -9.5T740.5 1103T823 1055l86 119q17 20 33 20h102q17 0 17 -16ZM721 920q-69 63 -184 63Q262 983 262 641V485q0 -95 21 -161L721 920ZM813 485V641q0 86 -22 160L352 207q67 -64 185 -64q276 0 276 342Z"
></glyph
><glyph unicode="&#xf9;" horiz-adv-x="1087" d="M113 414v671q0 17 11.5 29t29.5 12h98q17 0 29 -12t12 -29V414q0 -151 55.5 -213T530 139q47 0 127 11t138 26v909q0 16 11.5 28.5T836 1126H936q17 0 28 -12t11 -29V98Q975 60 938 49Q692 -14 514 -14Q363 -14 274 36T149 179.5T113 414ZM662 1290q0 -14 -18 -14H533q-10 0 -17 3t-13 9t-17 19L255 1565q-8 8 -8 16q0 14 22 14H404q26 0 51 -30L654 1311q8 -8 8 -21Z"
></glyph
><glyph unicode="&#xfa;" horiz-adv-x="1087" d="M113 414v671q0 17 11.5 29t29.5 12h98q17 0 29 -12t12 -29V414q0 -151 55.5 -213T530 139q47 0 127 11t138 26v909q0 16 11.5 28.5T836 1126H936q17 0 28 -12t11 -29V98Q975 60 938 49Q692 -14 514 -14Q363 -14 274 36T149 179.5T113 414ZM862 1581q0 -8 -8 -16L622 1307q-18 -20 -25 -25.5T575 1276H464q-18 0 -18 14q0 13 8 21l201 254q16 20 24 25t25 5H839q23 0 23 -14Z"
></glyph
><glyph unicode="&#xfb;" horiz-adv-x="1087" d="M113 414v671q0 17 11.5 29t29.5 12h98q17 0 29 -12t12 -29V414q0 -151 55.5 -213T530 139q47 0 127 11t138 26v909q0 16 11.5 28.5T836 1126H936q17 0 28 -12t11 -29V98Q975 60 938 49Q692 -14 514 -14Q363 -14 274 36T149 179.5T113 414ZM887 1290q0 -14 -19 -14H762q-15 0 -22 5.5T715 1307L547 1505L377 1307q-17 -19 -25 -25t-22 -6H223q-18 0 -18 14q0 13 8 21l197 254q16 20 24 25t25 5H633q26 0 51 -30L879 1311q8 -8 8 -21Z"
></glyph
><glyph unicode="&#xfc;" horiz-adv-x="1087" d="M113 414v671q0 17 11.5 29t29.5 12h98q17 0 29 -12t12 -29V414q0 -151 55.5 -213T530 139q47 0 127 11t138 26v909q0 16 11.5 28.5T836 1126H936q17 0 28 -12t11 -29V98Q975 60 938 49Q692 -14 514 -14Q363 -14 274 36T149 179.5T113 414ZM803 1352q0 -16 -12.5 -27.5T763 1313H683q-17 0 -29 11t-12 28v166q0 15 12 28t29 13h80q15 0 27.5 -13.5T803 1518V1352ZM445 1352q0 -17 -12 -28t-29 -11H324q-15 0 -28 11t-13 28v166q0 15 13 28t28 13h80q17 0 29 -13t12 -28V1352Z"
></glyph
><glyph unicode="&#xfd;" horiz-adv-x="1065" d="M999 1092q0 -11 -2 -15L659 -102Q626 -219 584 -283T472 -376.5T285 -406q-90 0 -172 19q-43 10 -43 33v75q0 33 39 33h6q135 -12 182 -12q91 0 134.5 35.5T500 -84L520 0H492Q437 0 402 26T340 141L68 1077q-2 4 -2 15q0 34 36 34H215q12 0 22 -10t13 -22L492 205q11 -45 38 -45h33l250 936q3 13 14 21.5t25 8.5H967q32 0 32 -34ZM899 1581q0 -8 -8 -16L659 1307q-18 -20 -25 -25.5T612 1276H501q-18 0 -18 14q0 13 8 21l201 254q16 20 24 25t25 5H876q23 0 23 -14Z"
></glyph
><glyph unicode="&#xfe;" horiz-adv-x="1061" d="M979 487Q979 244 866 115T532 -14Q419 -14 293 8V-362q0 -16 -11.5 -27.5T254 -401H150q-17 0 -27 11t-10 28V1499q0 17 11.5 29t29.5 12h98q17 0 29 -12t12 -29V1120q129 21 239 21q116 0 200 -35T871.5 1004T953 844T979 635V487ZM799 487V635q0 112 -25 190T689.5 946T532 989Q407 989 293 969V158Q401 137 532 137q144 0 205.5 88T799 487Z"
></glyph
><glyph unicode="&#xff;" horiz-adv-x="1065" d="M999 1092q0 -11 -2 -15L659 -102Q626 -219 584 -283T472 -376.5T285 -406q-90 0 -172 19q-43 10 -43 33v75q0 33 39 33h6q135 -12 182 -12q91 0 134.5 35.5T500 -84L520 0H492Q437 0 402 26T340 141L68 1077q-2 4 -2 15q0 34 36 34H215q12 0 22 -10t13 -22L492 205q11 -45 38 -45h33l250 936q3 13 14 21.5t25 8.5H967q32 0 32 -34ZM813 1352q0 -16 -12.5 -27.5T773 1313H693q-17 0 -29 11t-12 28v166q0 15 12 28t29 13h80q15 0 27.5 -13.5T813 1518V1352ZM455 1352q0 -17 -12 -28t-29 -11H334q-15 0 -28 11t-13 28v166q0 15 13 28t28 13h80q17 0 29 -13t12 -28V1352Z"
></glyph
><glyph unicode="&#x131;" horiz-adv-x="444" d="M311 41Q311 23 299 11.5T270 0H172Q157 0 144 12T131 41V1085q0 17 12 29t29 12h98q19 0 30 -11t11 -30V41Z"
></glyph
><glyph unicode="&#x141;" horiz-adv-x="1047" d="M1016 33Q1016 7 995 4Q959 -2 834.5 -8T596 -14Q377 -14 268.5 76T160 367V606L35 453Q26 440 12 440q-14 0 -14 13V582v2q0 26 14 45L160 811v670q0 15 12 28t29 13H305q17 0 29 -12t12 -29V1038l139 172q12 15 23 15q14 0 14 -15V1077q0 -25 -16 -47L346 834V367q0 -83 18 -127.5t72 -65T598 154H993q23 0 23 -25V33Z"
></glyph
><glyph unicode="&#x142;" horiz-adv-x="502" d="M510 1069q0 -17 -12 -33L342 844V41Q342 22 332 11T305 0H199Q183 0 172.5 11.5T162 41V623L23 453Q14 442 4 442q-18 0 -18 17V582v2q0 28 14 45L162 827v674q0 15 9.5 27t27.5 12H305q17 0 27 -11t10 -28V1049l131 161q7 11 19 11q9 0 13.5 -5.5T510 1202V1069Z"
></glyph
><glyph unicode="&#x152;" horiz-adv-x="1966" d="M1876 31Q1876 5 1855 2Q1736 -16 1456 -16q-301 0 -391 170Q1013 94 950.5 58T812.5 4T653 -14Q532 -14 430.5 23T254 138.5T138.5 341T98 629V893q0 165 41 288.5T255 1384t175 115.5T653 1536q131 0 235.5 -41.5T1065 1368q90 168 391 168q149 0 248.5 -5T1855 1518q10 -1 15.5 -9.5T1876 1489v-96q0 -25 -23 -25H1458q-108 0 -162 -20.5t-72 -65T1206 1155V870h629q19 0 30 -11t11 -30V752q0 -18 -12 -29.5T1835 711H1206V365q0 -83 18 -127.5t72 -65T1458 152h395q23 0 23 -25V31ZM1020 627V901q0 138 -32.5 241T873 1306.5T653 1368q-177 0 -271.5 -112.5T287 893V629q0 -166 44 -272.5T456 202T653 154q367 0 367 473Z"
></glyph
><glyph unicode="&#x153;" horiz-adv-x="1800" d="M1276 143q68 0 133.5 13t128 34.5T1638 227q23 10 35.5 1.5T1686 201V117q0 -15 -7.5 -22T1657 80Q1479 -14 1278 -14q-261 0 -377 168Q782 -14 537 -14Q317 -14 199.5 120.5T82 485V641q0 231 117.5 365.5T537 1141q246 0 366 -168q117 168 365 168q145 0 246.5 -58.5T1667 915t51 -253V551q0 -45 -39 -45H993V485q0 -168 61.5 -255T1276 143ZM1536 643v19q0 113 -29.5 185T1418 951t-150 32Q993 983 993 662V643h543ZM813 485V641q0 107 -29.5 183.5T692.5 942T537 983Q398 983 330 893.5T262 641V485Q262 143 537 143q139 0 207.5 89T813 485Z"
></glyph
><glyph unicode="&#x160;" horiz-adv-x="1087" d="M1001 395Q1001 222 888.5 104T512 -14q-98 0 -208 25T123 70Q97 83 90.5 92T84 125v84q0 40 41 24q90 -31 197 -54T518 156q104 0 169 29t92.5 82.5T807 395q0 77 -50 132.5T563 670L365 791Q217 881 149.5 968.5T82 1174q0 119 55 201t157.5 121.5T535 1536q109 0 213 -24.5T905 1462q16 -6 25.5 -14t9.5 -23V1321q0 -37 -39 -25q-71 23 -126.5 38t-118 24.5T535 1368q-138 0 -201.5 -43.5T270 1174q0 -70 49.5 -121.5T494 926L682 813Q858 710 929.5 614.5T1001 395ZM874 1932q0 -12 -8 -20L667 1658q-15 -18 -24.5 -24.5T616 1627H442q-17 0 -25 5.5T393 1658L192 1912q-8 8 -8 20q0 14 18 14H313q14 0 21.5 -6T360 1914L530 1717l168 197q20 23 26 27.5t21 4.5H855q19 0 19 -14Z"
></glyph
><glyph unicode="&#x161;" horiz-adv-x="913" d="M428 139q223 0 223 156q0 48 -32 82T498 457L291 563Q189 617 135.5 689T82 862q0 106 55 167.5T279 1116t194 25q83 0 165.5 -18T760 1083q16 -9 22 -14.5t6 -21.5V963q0 -18 -12.5 -26.5T741 936q-57 22 -132.5 36.5T473 987q-96 0 -153.5 -24T262 864q0 -52 33 -88.5T403 700L606 596q86 -44 135 -89t69.5 -94T831 303Q831 198 779 126.5T636 20.5T428 -14Q339 -14 253.5 6.5T121 51Q92 66 92 88v84q0 18 13 27t34 0Q292 139 428 139ZM790 1581q0 -12 -8 -20L583 1307q-15 -18 -24.5 -24.5T532 1276H358q-17 0 -25 5.5T309 1307L108 1561q-8 8 -8 20q0 14 18 14H229q14 0 21.5 -6T276 1563L446 1366l168 197q20 23 26 27.5t21 4.5H771q19 0 19 -14Z"
></glyph
><glyph unicode="&#x178;" horiz-adv-x="1167" d="M1110 1493q0 -9 -6 -23L786 758Q739 650 676 623V41Q676 24 665 12T639 0H526Q511 0 500 12T489 41V623Q429 646 379 758L63 1470q-6 14 -6 23q0 12 9.5 20.5T92 1522H217q10 0 21.5 -9.5T254 1493L537 829q23 -53 47 -53q23 0 47 53l284 664q15 29 35 29h125q16 0 25.5 -8t9.5 -21ZM842 1681q0 -16 -12.5 -27.5T802 1642H722q-17 0 -29 11t-12 28v166q0 15 12 28t29 13h80q15 0 27.5 -13.5T842 1847V1681ZM484 1681q0 -17 -12 -28t-29 -11H363q-15 0 -28 11t-13 28v166q0 15 13 28t28 13h80q17 0 29 -13t12 -28V1681Z"
></glyph
><glyph unicode="&#x17d;" horiz-adv-x="1180" d="M1092 37q0 -16 -12.5 -26.5T1051 0H262Q164 0 128 29T92 139q0 73 31 119L856 1325q6 9 6 16q0 15 -20 15H162q-17 0 -29 9.5T121 1391v96q0 15 12 25t29 10H891q92 0 133 -27.5T1065 1386q0 -29 -8.5 -64T1032 1266L301 199q-6 -9 -6 -19q0 -12 20 -12h736q17 0 29 -9.5T1092 133V37ZM940 1932q0 -12 -8 -20L733 1658q-15 -18 -24.5 -24.5T682 1627H508q-17 0 -25 5.5T459 1658L258 1912q-8 8 -8 20q0 14 18 14H379q14 0 21.5 -6T426 1914L596 1717l168 197q20 23 26 27.5t21 4.5H921q19 0 19 -14Z"
></glyph
><glyph unicode="&#x17e;" horiz-adv-x="948" d="M866 41Q866 23 854 11.5T825 0H207Q146 0 114 32.5T82 113v39q0 42 10.5 70.5T129 285L657 942q9 11 9 19q0 14 -21 14H147q-15 0 -28 12t-13 29v69q0 17 12 29t29 12H750q114 0 114 -100V977q0 -57 -47 -113L279 190Q268 180 268 168q0 -16 17 -16H825q17 0 29 -12t12 -29V41ZM827 1581q0 -12 -8 -20L620 1307q-15 -18 -24.5 -24.5T569 1276H395q-17 0 -25 5.5T346 1307L145 1561q-8 8 -8 20q0 14 18 14H266q14 0 21.5 -6T313 1563L483 1366l168 197q20 23 26 27.5t21 4.5H808q19 0 19 -14Z"
></glyph
><glyph unicode="&#x192;" horiz-adv-x="1194" d="M1100 1520v-7l-8 -65q-3 -31 -50 -31H930q-75 0 -107.5 -29.5T778 1278L723 877h293q35 0 35 -31v-6l-11 -76q-2 -17 -15 -27T995 727H702L600 -4Q586 -106 541 -169T429.5 -258.5T272 -285q-73 0 -141 11q-35 5 -35 28v6l8 66q3 31 50 31H266q75 0 108.5 30.5T418 -4L520 727H258q-15 0 -26 8.5T221 760v4l10 76q1 15 15.5 26T279 877H541l55 401q38 281 328 281q56 0 141 -11q35 -5 35 -28Z"
></glyph
><glyph unicode="&#x2c6;" horiz-adv-x="748" d="M715 1290q0 -14 -19 -14H590q-15 0 -22 5.5T543 1307L375 1505L205 1307q-17 -19 -25 -25t-22 -6H51q-18 0 -18 14q0 13 8 21l197 254q16 20 24 25t25 5H461q26 0 51 -30L707 1311q8 -8 8 -21Z"
></glyph
><glyph unicode="&#x2c7;" horiz-adv-x="752" d="M721 1581q0 -12 -8 -20L514 1307q-15 -18 -24.5 -24.5T463 1276H289q-17 0 -25 5.5T240 1307L39 1561q-8 8 -8 20q0 14 18 14H160q14 0 21.5 -6T207 1563L377 1366l168 197q20 23 26 27.5t21 4.5H702q19 0 19 -14Z"
></glyph
><glyph unicode="&#x2c9;" horiz-adv-x="748" d="M711 1417q0 -16 -12 -25.5T670 1382H80q-18 0 -29.5 9.5T39 1417v70q0 16 11.5 25.5T80 1522H670q17 0 29 -9.5T711 1487v-70Z"
></glyph
><glyph unicode="&#x2d8;" horiz-adv-x="748" d="M709 1569v-8q-7 -92 -56 -157.5T530 1305T375 1272q-81 0 -155.5 33t-123 97.5T41 1561v8q0 26 22 26h76q28 0 31 -32q9 -78 68 -121t137 -43q78 0 137.5 43.5T580 1563q3 32 30 32h76q23 0 23 -26Z"
></glyph
><glyph unicode="&#x2d9;" horiz-adv-x="649" d="M414 1348q0 -17 -12 -29t-27 -12H276q-15 0 -27.5 11.5T236 1348v172q0 16 12.5 27.5T276 1559h99q15 0 27 -12t12 -27V1348Z"
></glyph
><glyph unicode="&#x2da;" horiz-adv-x="694" d="M555 1440q0 -85 -61 -146T348 1233q-57 0 -105 28t-76 75t-28 104q0 57 28 104.5t75.5 76T348 1649q58 0 104.5 -28T527 1545t28 -105ZM457 1442q0 45 -32.5 75.5T348 1548q-44 0 -75 -31t-31 -75q0 -44 30.5 -76.5T348 1333q45 0 77 32t32 77Z"
></glyph
><glyph unicode="&#x2db;" horiz-adv-x="694" d="M590 -350q0 -18 -23 -23q-97 -26 -168 -26q-141 0 -204.5 77T131 -123q0 86 27 180q2 11 7.5 15T186 76h82q19 0 19 -13q0 -4 -0.5 -6.5T285 51Q264 -43 264 -111q0 -78 35.5 -124T422 -281q55 0 137 19q6 2 16 2q15 0 15 -14v-76Z"
></glyph
><glyph unicode="&#x2dc;" horiz-adv-x="956" d="M834 1497q0 -108 -46 -161.5T641 1282q-76 0 -131 43L385 1425q-34 29 -49.5 37t-34.5 8q-35 0 -49 -23t-14 -71v-43q0 -15 -10 -25t-25 -10H139q-14 0 -23.5 10.5T106 1333v43q0 109 51.5 166T301 1599q60 0 123 -49L569 1436q20 -14 39 -21.5t33 -7.5q32 0 46.5 20t14.5 70v47q0 14 10.5 24.5T737 1579h64q13 0 23 -11t10 -24v-47Z"
></glyph
><glyph unicode="&#x2dd;" horiz-adv-x="764" d="M829 1581q0 -8 -8 -16L592 1307q-17 -19 -25 -25t-22 -6H434q-18 0 -18 14q0 13 8 21l199 254q25 30 51 30H807q22 0 22 -14ZM471 1581q0 -8 -8 -16L233 1307q-18 -20 -25 -25.5T186 1276H76q-19 0 -19 14q0 13 9 21l198 254q18 20 26 25t25 5H449q22 0 22 -14Z"
></glyph
><glyph unicode="&#x3c0;" horiz-adv-x="1114" d="M1049 961H907V274q0 -64 8 -96t29 -44.5T1010 121h49q20 0 20 -23V10q0 -14 -4 -18t-18 -8q-47 -9 -82 -9Q882 -25 829 4T752.5 98T729 274V961H389V41Q389 0 360 0H238Q207 0 207 41V961H66q-18 0 -24.5 6T35 991v103q0 19 6.5 25.5T66 1126h983q18 0 24 -6.5t6 -25.5V991q0 -18 -6 -24t-24 -6Z"
></glyph
><glyph unicode="&#x2013;" horiz-adv-x="901" d="M829 530q0 -15 -10.5 -24.5T791 496H111q-39 0 -39 34v97q0 15 11 26t28 11H791q18 0 28 -11t10 -26V530Z"
></glyph
><glyph unicode="&#x2014;" horiz-adv-x="1659" d="M1587 530q0 -34 -39 -34H111q-39 0 -39 34v97q0 15 11 26t28 11H1548q17 0 28 -11t11 -26V530Z"
></glyph
><glyph unicode="&#x2018;" horiz-adv-x="362" d="M328 1520q0 -13 -2 -19L250 1114q-8 -39 -41 -39H72q-23 0 -23 23q0 10 2 16l125 387q11 39 39 39h94q19 0 19 -20Z"
></glyph
><glyph unicode="&#x2019;" horiz-adv-x="362" d="M313 1518q0 -11 -2 -17L186 1114q-11 -39 -39 -39H53q-18 0 -18 21q0 12 2 18l76 387q8 39 41 39H291q22 0 22 -22Z"
></glyph
><glyph unicode="&#x201a;" horiz-adv-x="362" d="M350 242q0 -5 -4 -17L193 -162q-8 -20 -16 -29.5T154 -201H53q-24 0 -24 25q0 10 2 14L147 225q13 39 41 39H324q26 0 26 -22Z"
></glyph
><glyph unicode="&#x201c;" horiz-adv-x="672" d="M637 1520q0 -13 -2 -19L559 1114q-8 -39 -41 -39H381q-23 0 -23 23q0 10 2 16l125 387q12 39 39 39h94q19 0 19 -20ZM313 1520q0 -13 -2 -19L236 1114q-9 -39 -41 -39H57q-22 0 -22 23q0 10 2 16l125 387q11 39 39 39h94q18 0 18 -20Z"
></glyph
><glyph unicode="&#x201d;" horiz-adv-x="672" d="M637 1518q0 -11 -2 -17L510 1114q-11 -39 -39 -39H377q-19 0 -19 21q0 12 2 18l76 387q8 39 41 39H614q23 0 23 -22ZM313 1518q0 -11 -2 -17L186 1114q-11 -39 -39 -39H53q-18 0 -18 21q0 12 2 18l76 387q8 39 41 39H291q22 0 22 -22Z"
></glyph
><glyph unicode="&#x201e;" horiz-adv-x="672" d="M717 242q0 -5 -4 -17L559 -162q-9 -23 -15.5 -31T520 -201H420q-25 0 -25 25q0 10 2 14L514 225q12 39 41 39H690q27 0 27 -22ZM332 242q0 -5 -4 -17L174 -162q-9 -23 -15.5 -31T135 -201H35q-25 0 -25 25q0 10 2 14L129 225q12 39 41 39H305q27 0 27 -22Z"
></glyph
><glyph unicode="&#x2020;" horiz-adv-x="799" d="M737 1014q0 -33 -39 -33H475V41Q475 0 442 0H326Q293 0 293 41V981H100q-39 0 -39 33v92q0 31 39 31H293v364q0 39 35 39H442q17 0 25 -11t8 -28V1137H698q39 0 39 -31v-92Z"
></glyph
><glyph unicode="&#x2021;" horiz-adv-x="799" d="M737 584q0 -33 -39 -33H475V41Q475 0 442 0H326Q293 0 293 41V551H100q-39 0 -39 33v92q0 31 39 31H293V981H100q-39 0 -39 33v92q0 31 39 31H293v364q0 39 35 39H442q17 0 25 -11t8 -28V1137H698q39 0 39 -31v-92q0 -33 -39 -33H475V707H698q39 0 39 -31V584Z"
></glyph
><glyph unicode="&#x2022;" horiz-adv-x="745" d="M115 539V973q0 15 12 28t29 13H590q15 0 28 -13t13 -28V539q0 -17 -13 -29T590 498H156q-17 0 -29 12t-12 29Z"
></glyph
><glyph unicode="&#x2026;" horiz-adv-x="1200" d="M1118 39q0 -17 -11.5 -28T1079 0H965Q948 0 936 11T924 39V231q0 16 12 27.5T965 270h114q17 0 28 -11t11 -28V39ZM698 39Q698 22 686 11T657 0H543Q527 0 515.5 11.5T504 39V231q0 15 11.5 27T543 270H657q18 0 29.5 -11.5T698 231V39ZM276 39Q276 22 265 11T238 0H123Q106 0 94 11T82 39V231q0 16 12 27.5T123 270H238q17 0 27.5 -11.5T276 231V39Z"
></glyph
><glyph unicode="&#x2030;" horiz-adv-x="2290" d="M627 1014Q627 849 554 764.5T350 680q-132 0 -205 84.5T72 1014v190q0 166 72.5 249T350 1536q87 0 149.5 -36.5t95 -111.5T627 1204V1014ZM1307 1477L449 25Q433 0 408 0H313Q283 0 283 18q0 7 10 27l858 1452q16 25 41 25h94q31 0 31 -19q0 -6 -10 -26ZM494 1014v190q0 209 -144 209q-145 0 -145 -209V1014Q205 805 350 805q144 0 144 209ZM1526 319q0 -165 -73 -249T1249 -14q-132 0 -205 84T971 319V510q0 167 73 249.5T1249 842q131 0 204 -82.5T1526 510V319ZM1393 319V510q0 209 -144 209q-145 0 -145 -209V319q0 -208 145 -208q144 0 144 208ZM2218 319q0 -165 -72.5 -249T1942 -14q-87 0 -150 37t-96 111t-33 185V510q0 112 33 186t96 110t150 36q131 0 203.5 -83T2218 510V319ZM2085 319V510q0 111 -36 160t-107 49q-146 0 -146 -209V319q0 -208 146 -208q71 0 107 49.5T2085 319Z"
></glyph
><glyph unicode="&#x2039;" horiz-adv-x="694" d="M612 162q0 -19 -22 -19H455q-23 0 -43 21L66 510Q43 531 43 567q0 35 23 58L412 971q20 20 43 20H590q11 0 16.5 -4.5T612 973q0 -15 -12 -27L236 567L600 188q12 -12 12 -26Z"
></glyph
><glyph unicode="&#x203a;" horiz-adv-x="694" d="M651 567q0 -14 -5 -29.5T629 510L283 164Q262 143 240 143H104q-22 0 -22 19q0 14 12 26L459 567L94 946Q82 958 82 973q0 18 22 18H240q22 0 43 -20L629 625q22 -24 22 -58Z"
></glyph
><glyph unicode="&#x2044;" horiz-adv-x="623" d="M827 1509q0 -6 -10 -26L-39 33Q-54 8 -61.5 0T-84 -8H-184q-21 0 -21 16q0 14 8 25L659 1483q18 26 25 32.5t23 6.5H811q16 0 16 -13Z"
></glyph
><glyph unicode="&#x20ac;" horiz-adv-x="1202" d="M766 -14q-96 0 -191.5 28.5T396.5 107t-137 172.5T195 543H127q-17 0 -29 12T86 584v57q0 17 11.5 29T127 682h66V848H127q-17 0 -29 12T86 889v57q0 17 11.5 29T127 987h68q14 201 102 324t212 174t257 51q97 0 194 -28.5T1108 1450q12 -7 16 -12t4 -21V1317q0 -31 -34 -19q-84 31 -157 51.5T768 1370q-154 -2 -259.5 -91.5T383 987H977q16 0 25.5 -9.5T1012 954q0 -2 -0.5 -4t-1.5 -4L995 889Q984 848 954 848H379V682H905q31 0 31 -31q0 -2 -0.5 -4.5T934 641L920 584Q908 543 879 543H381Q392 405 448 317.5T587 192T768 154q53 0 101.5 8t86 18t77.5 23t61 20q17 6 25.5 1t8.5 -19V104q0 -15 -4 -20T1108 72Q1046 39 955.5 12.5T766 -14Z"
></glyph
><glyph unicode="&#x2122;" horiz-adv-x="1034" d="M428 1470q0 -18 -22 -18H276V1006q0 -21 -20 -21H213q-20 0 -20 21v446H61q-20 0 -20 18v33q0 21 20 21H406q9 0 15.5 -5.5T428 1503v-33ZM717 1198q-28 0 -45 15t-31 44l-78 168h-2V999q0 -14 -14 -14H498q-15 0 -15 14v502q0 7 7 14t14 7h82q17 0 22 -13L709 1278q3 -8 8 -8q5 0 8 8l100 231q5 13 23 13h82q7 0 13.5 -6.5T950 1501V999q0 -14 -14 -14H887q-15 0 -15 14v426h-2L793 1257q-14 -29 -31 -44t-45 -15Z"
></glyph
><glyph unicode="&#x2126;" horiz-adv-x="1188" d="M1126 43Q1126 0 1079 0H709Q666 0 666 43V274q0 26 5.5 36T694 326q126 45 191 157.5T950 764V944q0 436 -356 436Q238 1380 238 944V764q0 -168 65 -280.5T494 326q17 -6 22.5 -15T522 274V43Q522 0 479 0H109Q61 0 61 43v70q0 41 48 41H356v75Q250 275 182 356T83.5 540.5T53 764V944q0 142 37 255.5T196 1389t170.5 116.5T594 1546q126 0 228 -40.5t171.5 -117t105.5 -188T1135 944V764q0 -120 -30.5 -223.5T1006 356T831 229V154h248q47 0 47 -41V43Z"
></glyph
><glyph unicode="&#x2202;" horiz-adv-x="1114" d="M1049 971q0 -203 -45 -475Q958 244 826 112T467 -20Q333 -20 243.5 27T110 161.5T66 371q0 81 26 247q43 255 175.5 371.5T614 1106q76 0 147 -24.5T877 1008q-3 8 -7 28q-7 204 -96 326.5T446 1485q-109 0 -204 -17q-17 -3 -27 2t-8 19l8 59q3 33 35 41q97 21 219 21q201 0 330.5 -77.5T989 1312.5T1049 971ZM846 727q0 115 -54.5 173T614 958Q332 958 276 600Q250 418 250 369q0 -120 55.5 -182T481 125q277 0 336 360q29 168 29 242Z"
></glyph
><glyph unicode="&#x2206;" horiz-adv-x="1276" d="M1227 33Q1227 0 1192 0H84Q70 0 59.5 9.5T49 33q0 10 2 14L430 1380q25 87 83 121.5T639 1536q44 0 84 -13.5t73 -48T846 1382L1225 47q2 -4 2 -14ZM997 162L678 1337q-10 37 -39 37q-31 0 -41 -37L279 162H997Z"
></glyph
><glyph unicode="&#x220f;" horiz-adv-x="1296" d="M1262 1374q0 -20 -23 -20H1092V-117q0 -19 -10.5 -28t-24.5 -9H942q-35 0 -35 37V1354H391V-117q0 -37 -35 -37H242q-35 0 -35 37V1354H57q-22 0 -22 20v125q0 14 4.5 18.5T57 1522H1239q14 0 18.5 -4t4.5 -19V1374Z"
></glyph
><glyph unicode="&#x2211;" horiz-adv-x="1014" d="M924 -121q0 -33 -29 -33H125q-35 0 -35 41v95q0 29 12 49L494 659q6 11 6 25q0 14 -6 25L102 1337q-12 20 -12 49v95q0 41 35 41H895q29 0 29 -33v-98q0 -35 -29 -35H326q-17 0 -7 -19L682 754q12 -19 12 -41V655q0 -21 -12 -41L319 31Q309 12 326 12H895q29 0 29 -35v-98Z"
></glyph
><glyph unicode="&#x2212;" horiz-adv-x="1180" d="M1049 752q0 -33 -41 -33H158q-41 0 -41 33v98q0 15 11.5 24t29.5 9h850q16 0 28.5 -9T1049 850V752Z"
></glyph
><glyph unicode="&#x2215;" horiz-adv-x="623" d="M827 1509q0 -6 -10 -26L-39 33Q-54 8 -61.5 0T-84 -8H-184q-21 0 -21 16q0 14 8 25L659 1483q18 26 25 32.5t23 6.5H811q16 0 16 -13Z"
></glyph
><glyph unicode="&#x2219;" horiz-adv-x="389" d="M291 707q0 -18 -11.5 -29.5T252 666H137q-15 0 -27 12T98 707V897q0 16 11 27.5T137 936H252q16 0 27.5 -11.5T291 897V707Z"
></glyph
><glyph unicode="&#x221a;" horiz-adv-x="1470" d="M1409 1759L825 -121q-9 -33 -51 -33H623q-18 0 -26.5 8.5T582 -117L299 809q-5 15 -9 18.5T274 831H76q-23 0 -23 25v96q0 29 23 29H379q32 0 41 -31L705 -16l536 1773q7 20 12 25.5t23 5.5h113q24 0 24 -14q0 -3 -4 -15Z"
></glyph
><glyph unicode="&#x221e;" horiz-adv-x="1225" d="M1159 745q0 -184 -67.5 -314T844 301H831Q673 301 578 408Q505 297 379 297H367Q187 297 126.5 425T66 743v52q0 188 67 317t246 129h14q147 0 250 -108q38 59 88 84.5T848 1243h12q124 0 190 -66t87.5 -162T1159 797V745ZM1012 745v52q0 155 -28.5 237T860 1116H848q-39 0 -63.5 -16T742 1044.5t-32 -105T680 768Q650 576 633 524q85 -98 198 -98h13q96 0 132 87t36 232ZM586 1010q-46 55 -97.5 79.5T391 1114H381q-96 0 -131 -87T215 795V743q0 -100 9.5 -166.5T266.5 467T367 424h12q48 0 78 32.5t51 112T547 780q28 196 39 230Z"
></glyph
><glyph unicode="&#x222b;" horiz-adv-x="895" d="M831 1434q0 -21 -22 -19q-78 4 -156 4q-55 0 -79 -14.5T543.5 1355T537 1243V-96q0 -102 -18 -170.5t-78 -109T266 -416q-104 0 -182 21q-21 3 -21 26v82q0 22 23 19q78 -4 156 -4q55 0 79 14t30.5 49.5T358 -96V1243q0 102 18 170.5t78 109T629 1563q96 0 182 -21q20 -3 20 -26v-82Z"
></glyph
><glyph unicode="&#x2248;" horiz-adv-x="1141" d="M940 1110Q940 891 754 891q-41 0 -76 9.5T592 948l-107 86q-31 25 -49.5 35T397 1079q-53 0 -53 -90V946q0 -39 -39 -39H242q-37 0 -37 39v43q0 110 50.5 169T391 1217q46 0 77 -13.5T557 1145l117 -92q39 -29 76 -29q51 0 51 86v47q0 39 39 39h63q25 0 31 -9.5t6 -29.5v-47ZM940 618Q940 399 754 399q-41 0 -78 11t-84 47L485 543q-31 25 -49.5 35T397 588q-53 0 -53 -90V455q0 -39 -39 -39H242q-37 0 -37 39v43q0 109 50.5 168T391 725q46 0 77.5 -13.5T557 653L674 561q41 -29 76 -29q51 0 51 86v48q0 39 39 39h63q23 0 30 -9.5T940 666V618Z"
></glyph
><glyph unicode="&#x2260;" horiz-adv-x="1165" d="M1018 526q0 -32 -41 -32H567L412 39Q401 0 360 0H268Q254 0 246 12.5T242 39L397 494H188q-41 0 -41 32v99q0 32 41 32H453L553 946H188q-41 0 -41 33v98q0 33 41 33H608l133 385q13 39 52 39h92q16 0 23.5 -12t2.5 -27L778 1110H977q41 0 41 -33V979q0 -33 -41 -33H723L623 657H977q41 0 41 -32V526Z"
></glyph
><glyph unicode="&#x2264;" horiz-adv-x="1047" d="M823 334q0 -23 -26 -23H639q-28 0 -49 25L178 748q-26 20 -26 67q0 44 26 66l412 411q21 25 49 25H797q26 0 26 -23q0 -17 -16 -30L356 815L807 365q16 -15 16 -31ZM989 33Q989 0 948 0H98Q57 0 57 33v84q0 15 12.5 24T98 150H948q18 0 29.5 -8.5T989 117V33Z"
></glyph
><glyph unicode="&#x2265;" horiz-adv-x="1047" d="M223 334q0 17 17 31L690 815L240 1264q-17 13 -17 30q0 23 27 23H408q26 0 49 -25L868 881q27 -21 27 -66q0 -47 -27 -67L457 336Q434 311 408 311H250q-27 0 -27 23ZM57 33v84q0 15 12.5 24T98 150H948q18 0 29.5 -8.5T989 117V33Q989 0 948 0H98Q57 0 57 33Z"
></glyph
><glyph unicode="&#x25ca;" horiz-adv-x="1030" d="M516 1290q58 0 90 -47L926 844q45 -58 45 -107q0 -43 -45 -104L610 244Q581 209 562 195.5T516 182q-26 0 -43.5 12T422 244L106 633Q61 694 61 737q0 49 45 107l320 399q18 25 39 36t51 11ZM516 387q14 0 41 31L766 682q25 36 25 53q0 11 -2.5 16.5t-9 15.5T768 784L551 1061q-18 24 -35 24q-15 0 -35 -24L264 784Q251 765 246.5 756T242 735q0 -19 24 -53L475 418q28 -31 41 -31Z"
></glyph
><glyph unicode="&#xf001;" horiz-adv-x="1231" d="M1102 1348q0 -17 -13 -29t-28 -12H956q-15 0 -28 12t-13 29v163q0 17 12 29t29 12h105q17 0 29 -12t12 -29V1348ZM1098 41q0 -17 -13 -29T1057 0H958Q942 0 930 12T918 41V1085q0 17 11.5 29t28.5 12h99q17 0 29 -12t12 -29V41ZM719 1446q0 -31 -37 -31H584q-74 0 -99.5 -29T459 1274V1126H674q16 0 27.5 -10.5T713 1090v-80q0 -35 -39 -35H459V41Q459 25 447.5 12.5T420 0H319Q302 0 290.5 12.5T279 41V975L80 997q-39 3 -39 37v56q0 15 11.5 25.5T80 1126H279v148q0 106 33 169t96 89.5T565 1559q44 0 115 -13q39 -7 39 -33v-67Z"
></glyph
><glyph unicode="&#xf002;" horiz-adv-x="1227" d="M1098 41q0 -16 -10.5 -28.5T1061 0H954Q939 0 928.5 11.5T918 41V1501q0 15 9.5 27t26.5 12h107q15 0 26 -11t11 -28V41ZM719 1446q0 -31 -37 -31H584q-74 0 -99.5 -29T459 1274V1126H674q16 0 27.5 -10.5T713 1090v-80q0 -35 -39 -35H459V41Q459 25 447.5 12.5T420 0H319Q302 0 290.5 12.5T279 41V975L80 997q-39 3 -39 37v56q0 15 11.5 25.5T80 1126H279v148q0 106 33 169t96 89.5T565 1559q44 0 115 -13q39 -7 39 -33v-67Z"
></glyph
><glyph unicode="&#xf006;" horiz-adv-x="1114" d="M1049 961H907V274q0 -64 8 -96t29 -44.5T1010 121h49q20 0 20 -23V10q0 -14 -4 -18t-18 -8q-47 -9 -82 -9Q882 -25 829 4T752.5 98T729 274V961H389V41Q389 0 360 0H238Q207 0 207 41V961H66q-18 0 -24.5 6T35 991v103q0 19 6.5 25.5T66 1126h983q18 0 24 -6.5t6 -25.5V991q0 -18 -6 -24t-24 -6Z"
></glyph
><glyph unicode="&#xfb01;" horiz-adv-x="1231" d="M1102 1348q0 -17 -13 -29t-28 -12H956q-15 0 -28 12t-13 29v163q0 17 12 29t29 12h105q17 0 29 -12t12 -29V1348ZM1098 41q0 -17 -13 -29T1057 0H958Q942 0 930 12T918 41V1085q0 17 11.5 29t28.5 12h99q17 0 29 -12t12 -29V41ZM719 1446q0 -31 -37 -31H584q-74 0 -99.5 -29T459 1274V1126H674q16 0 27.5 -10.5T713 1090v-80q0 -35 -39 -35H459V41Q459 25 447.5 12.5T420 0H319Q302 0 290.5 12.5T279 41V975L80 997q-39 3 -39 37v56q0 15 11.5 25.5T80 1126H279v148q0 106 33 169t96 89.5T565 1559q44 0 115 -13q39 -7 39 -33v-67Z"
></glyph
><glyph unicode="&#xfb02;" horiz-adv-x="1227" d="M1098 41q0 -16 -10.5 -28.5T1061 0H954Q939 0 928.5 11.5T918 41V1501q0 15 9.5 27t26.5 12h107q15 0 26 -11t11 -28V41ZM719 1446q0 -31 -37 -31H584q-74 0 -99.5 -29T459 1274V1126H674q16 0 27.5 -10.5T713 1090v-80q0 -35 -39 -35H459V41Q459 25 447.5 12.5T420 0H319Q302 0 290.5 12.5T279 41V975L80 997q-39 3 -39 37v56q0 15 11.5 25.5T80 1126H279v148q0 106 33 169t96 89.5T565 1559q44 0 115 -13q39 -7 39 -33v-67Z"
></glyph
></font
></defs
><g style="font-family: &quot;Neo Sans Intel&quot;; font-size:50;fill:black"
><text x="20" y="50"
>!&quot;#$%&amp;&#39;()*+,-./0123456789:;&#229;&lt;&gt;?</text
><text x="20" y="100"
>@ABCDEFGHIJKLMNOPQRSTUVWXYZ[\]^_</text
><text x="20" y="150"
>` abcdefghijklmnopqrstuvwxyz|{}~</text
></g
></svg
>